%YAML 1.1
%TAG !u! tag:unity3d.com,2011:
--- !u!1 &2442224642714370051
GameObject:
  m_ObjectHideFlags: 0
  m_CorrespondingSourceObject: {fileID: 0}
  m_PrefabInstance: {fileID: 0}
  m_PrefabAsset: {fileID: 0}
  serializedVersion: 6
  m_Component:
  - component: {fileID: 2442224642714370054}
  - component: {fileID: 2442224642714370055}
  - component: {fileID: 2442224642714370048}
  - component: {fileID: 2442224642714370049}
  m_Layer: 0
  m_Name: Model
  m_TagString: Untagged
  m_Icon: {fileID: 0}
  m_NavMeshLayer: 0
  m_StaticEditorFlags: 0
  m_IsActive: 1
--- !u!4 &2442224642714370054
Transform:
  m_ObjectHideFlags: 0
  m_CorrespondingSourceObject: {fileID: 0}
  m_PrefabInstance: {fileID: 0}
  m_PrefabAsset: {fileID: 0}
  m_GameObject: {fileID: 2442224642714370051}
  m_LocalRotation: {x: 0.7071068, y: -0, z: -0, w: 0.7071068}
  m_LocalPosition: {x: 0.499, y: -0, z: -0.06}
  m_LocalScale: {x: 1, y: 0.11000006, z: 1}
  m_Children: []
  m_Father: {fileID: 7112200168563246126}
  m_RootOrder: 1
  m_LocalEulerAnglesHint: {x: 90, y: 0, z: 0}
--- !u!33 &2442224642714370055
MeshFilter:
  m_ObjectHideFlags: 0
  m_CorrespondingSourceObject: {fileID: 0}
  m_PrefabInstance: {fileID: 0}
  m_PrefabAsset: {fileID: 0}
  m_GameObject: {fileID: 2442224642714370051}
  m_Mesh: {fileID: 0}
--- !u!23 &2442224642714370048
MeshRenderer:
  m_ObjectHideFlags: 0
  m_CorrespondingSourceObject: {fileID: 0}
  m_PrefabInstance: {fileID: 0}
  m_PrefabAsset: {fileID: 0}
  m_GameObject: {fileID: 2442224642714370051}
  m_Enabled: 1
  m_CastShadows: 1
  m_ReceiveShadows: 1
  m_DynamicOccludee: 1
  m_MotionVectors: 1
  m_LightProbeUsage: 1
  m_ReflectionProbeUsage: 1
  m_RenderingLayerMask: 1
  m_RendererPriority: 0
  m_Materials:
  - {fileID: 2100000, guid: a228ba730882f691e93de798543c91a0, type: 2}
  - {fileID: 2100000, guid: 410ad9d5f740f96f6b9dd295692fdce1, type: 2}
  m_StaticBatchInfo:
    firstSubMesh: 0
    subMeshCount: 0
  m_StaticBatchRoot: {fileID: 0}
  m_ProbeAnchor: {fileID: 0}
  m_LightProbeVolumeOverride: {fileID: 0}
  m_ScaleInLightmap: 1
  m_PreserveUVs: 0
  m_IgnoreNormalsForChartDetection: 0
  m_ImportantGI: 0
  m_StitchLightmapSeams: 0
  m_SelectedEditorRenderState: 2
  m_MinimumChartSize: 4
  m_AutoUVMaxDistance: 0.5
  m_AutoUVMaxAngle: 89
  m_LightmapParameters: {fileID: 0}
  m_SortingLayerID: 0
  m_SortingLayer: 0
  m_SortingOrder: 0
--- !u!114 &2442224642714370049
MonoBehaviour:
  m_ObjectHideFlags: 0
  m_CorrespondingSourceObject: {fileID: 0}
  m_PrefabInstance: {fileID: 0}
  m_PrefabAsset: {fileID: 0}
  m_GameObject: {fileID: 2442224642714370051}
  m_Enabled: 1
  m_EditorHideFlags: 0
  m_Script: {fileID: 11500000, guid: 8233d90336aea43098adf6dbabd606a2, type: 3}
  m_Name: 
  m_EditorClassIdentifier: 
  m_MeshFormatVersion: 1
  m_Faces:
  - m_Indexes: 030000000000000001000000020000000300000001000000
    m_SmoothingGroup: 1
    m_Uv:
      m_UseWorldSpace: 0
      m_FlipU: 0
      m_FlipV: 0
      m_SwapUV: 0
      m_Fill: 1
      m_Scale: {x: 1, y: 1}
      m_Offset: {x: 0, y: 0}
      m_Rotation: 0
      m_Anchor: 9
    m_Material: {fileID: 2100000, guid: c22777d6e868e4f2fb421913386b154e, type: 2}
    m_SubmeshIndex: 0
    m_ManualUV: 0
    elementGroup: 0
    m_TextureGroup: 1
  - m_Indexes: 070000000400000005000000060000000700000005000000
    m_SmoothingGroup: 1
    m_Uv:
      m_UseWorldSpace: 0
      m_FlipU: 0
      m_FlipV: 0
      m_SwapUV: 0
      m_Fill: 1
      m_Scale: {x: 1, y: 1}
      m_Offset: {x: 0, y: 0}
      m_Rotation: 0
      m_Anchor: 9
    m_Material: {fileID: 2100000, guid: c22777d6e868e4f2fb421913386b154e, type: 2}
    m_SubmeshIndex: 0
    m_ManualUV: 0
    elementGroup: 0
    m_TextureGroup: 1
  - m_Indexes: 0a0000000b00000008000000090000000a00000008000000
    m_SmoothingGroup: 1
    m_Uv:
      m_UseWorldSpace: 0
      m_FlipU: 0
      m_FlipV: 0
      m_SwapUV: 0
      m_Fill: 1
      m_Scale: {x: 1, y: 1}
      m_Offset: {x: 0, y: 0}
      m_Rotation: 0
      m_Anchor: 9
    m_Material: {fileID: 2100000, guid: c22777d6e868e4f2fb421913386b154e, type: 2}
    m_SubmeshIndex: 0
    m_ManualUV: 0
    elementGroup: 0
    m_TextureGroup: 1
  - m_Indexes: 0d0000000e0000000f0000000c0000000d0000000f000000
    m_SmoothingGroup: 1
    m_Uv:
      m_UseWorldSpace: 0
      m_FlipU: 0
      m_FlipV: 0
      m_SwapUV: 0
      m_Fill: 1
      m_Scale: {x: 1, y: 1}
      m_Offset: {x: 0, y: 0}
      m_Rotation: 0
      m_Anchor: 9
    m_Material: {fileID: 2100000, guid: c22777d6e868e4f2fb421913386b154e, type: 2}
    m_SubmeshIndex: 0
    m_ManualUV: 0
    elementGroup: 0
    m_TextureGroup: 1
  - m_Indexes: 100000001200000013000000100000001100000012000000
    m_SmoothingGroup: 1
    m_Uv:
      m_UseWorldSpace: 0
      m_FlipU: 0
      m_FlipV: 0
      m_SwapUV: 0
      m_Fill: 1
      m_Scale: {x: 1, y: 1}
      m_Offset: {x: 0, y: 0}
      m_Rotation: 0
      m_Anchor: 9
    m_Material: {fileID: 2100000, guid: c22777d6e868e4f2fb421913386b154e, type: 2}
    m_SubmeshIndex: 0
    m_ManualUV: 0
    elementGroup: 0
    m_TextureGroup: 2
  - m_Indexes: 140000001600000017000000140000001500000016000000
    m_SmoothingGroup: 1
    m_Uv:
      m_UseWorldSpace: 0
      m_FlipU: 0
      m_FlipV: 0
      m_SwapUV: 0
      m_Fill: 1
      m_Scale: {x: 1, y: 1}
      m_Offset: {x: 0, y: 0}
      m_Rotation: 0
      m_Anchor: 9
    m_Material: {fileID: 2100000, guid: c22777d6e868e4f2fb421913386b154e, type: 2}
    m_SubmeshIndex: 0
    m_ManualUV: 0
    elementGroup: 0
    m_TextureGroup: 2
  - m_Indexes: 1a0000001b00000019000000190000001b00000018000000
    m_SmoothingGroup: 1
    m_Uv:
      m_UseWorldSpace: 0
      m_FlipU: 0
      m_FlipV: 0
      m_SwapUV: 0
      m_Fill: 1
      m_Scale: {x: 1, y: 1}
      m_Offset: {x: 0, y: 0}
      m_Rotation: 0
      m_Anchor: 9
    m_Material: {fileID: 2100000, guid: c22777d6e868e4f2fb421913386b154e, type: 2}
    m_SubmeshIndex: 0
    m_ManualUV: 0
    elementGroup: 0
    m_TextureGroup: 2
  - m_Indexes: 1d0000001e0000001c0000001c0000001e0000001f000000
    m_SmoothingGroup: 1
    m_Uv:
      m_UseWorldSpace: 0
      m_FlipU: 0
      m_FlipV: 0
      m_SwapUV: 0
      m_Fill: 1
      m_Scale: {x: 1, y: 1}
      m_Offset: {x: 0, y: 0}
      m_Rotation: 0
      m_Anchor: 9
    m_Material: {fileID: 2100000, guid: c22777d6e868e4f2fb421913386b154e, type: 2}
    m_SubmeshIndex: 0
    m_ManualUV: 0
    elementGroup: 0
    m_TextureGroup: 2
  - m_Indexes: 220000002300000021000000210000002300000020000000
    m_SmoothingGroup: 1
    m_Uv:
      m_UseWorldSpace: 0
      m_FlipU: 0
      m_FlipV: 0
      m_SwapUV: 0
      m_Fill: 1
      m_Scale: {x: 1, y: 1}
      m_Offset: {x: 0, y: 0}
      m_Rotation: 0
      m_Anchor: 9
    m_Material: {fileID: 2100000, guid: c22777d6e868e4f2fb421913386b154e, type: 2}
    m_SubmeshIndex: 0
    m_ManualUV: 0
    elementGroup: 0
    m_TextureGroup: 3
  - m_Indexes: 260000002700000025000000250000002700000024000000
    m_SmoothingGroup: 1
    m_Uv:
      m_UseWorldSpace: 0
      m_FlipU: 0
      m_FlipV: 0
      m_SwapUV: 0
      m_Fill: 1
      m_Scale: {x: 1, y: 1}
      m_Offset: {x: 0, y: 0}
      m_Rotation: 0
      m_Anchor: 9
    m_Material: {fileID: 2100000, guid: c22777d6e868e4f2fb421913386b154e, type: 2}
    m_SubmeshIndex: 0
    m_ManualUV: 0
    elementGroup: 0
    m_TextureGroup: 3
  - m_Indexes: 28000000290000002a0000002b000000280000002a000000
    m_SmoothingGroup: 1
    m_Uv:
      m_UseWorldSpace: 0
      m_FlipU: 0
      m_FlipV: 0
      m_SwapUV: 0
      m_Fill: 1
      m_Scale: {x: 1, y: 1}
      m_Offset: {x: 0, y: 0}
      m_Rotation: 0
      m_Anchor: 9
    m_Material: {fileID: 2100000, guid: c22777d6e868e4f2fb421913386b154e, type: 2}
    m_SubmeshIndex: 0
    m_ManualUV: 0
    elementGroup: 0
    m_TextureGroup: 3
  - m_Indexes: 2f0000002c0000002d0000002e0000002f0000002d000000
    m_SmoothingGroup: 1
    m_Uv:
      m_UseWorldSpace: 0
      m_FlipU: 0
      m_FlipV: 0
      m_SwapUV: 0
      m_Fill: 1
      m_Scale: {x: 1, y: 1}
      m_Offset: {x: 0, y: 0}
      m_Rotation: 0
      m_Anchor: 9
    m_Material: {fileID: 2100000, guid: c22777d6e868e4f2fb421913386b154e, type: 2}
    m_SubmeshIndex: 0
    m_ManualUV: 0
    elementGroup: 0
    m_TextureGroup: 3
  - m_Indexes: 320000003300000031000000330000003000000031000000
    m_SmoothingGroup: 1
    m_Uv:
      m_UseWorldSpace: 0
      m_FlipU: 0
      m_FlipV: 0
      m_SwapUV: 0
      m_Fill: 1
      m_Scale: {x: 1, y: 1}
      m_Offset: {x: 0, y: 0}
      m_Rotation: 0
      m_Anchor: 9
    m_Material: {fileID: 2100000, guid: c22777d6e868e4f2fb421913386b154e, type: 2}
    m_SubmeshIndex: 0
    m_ManualUV: 0
    elementGroup: 0
    m_TextureGroup: 4
  - m_Indexes: 360000003700000034000000360000003400000035000000
    m_SmoothingGroup: 1
    m_Uv:
      m_UseWorldSpace: 0
      m_FlipU: 0
      m_FlipV: 0
      m_SwapUV: 0
      m_Fill: 1
      m_Scale: {x: 1, y: 1}
      m_Offset: {x: 0, y: 0}
      m_Rotation: 0
      m_Anchor: 9
    m_Material: {fileID: 2100000, guid: c22777d6e868e4f2fb421913386b154e, type: 2}
    m_SubmeshIndex: 0
    m_ManualUV: 0
    elementGroup: 0
    m_TextureGroup: 4
  - m_Indexes: 390000003b00000038000000390000003a0000003b000000
    m_SmoothingGroup: 1
    m_Uv:
      m_UseWorldSpace: 0
      m_FlipU: 0
      m_FlipV: 0
      m_SwapUV: 0
      m_Fill: 1
      m_Scale: {x: 1, y: 1}
      m_Offset: {x: 0, y: 0}
      m_Rotation: 0
      m_Anchor: 9
    m_Material: {fileID: 2100000, guid: c22777d6e868e4f2fb421913386b154e, type: 2}
    m_SubmeshIndex: 0
    m_ManualUV: 0
    elementGroup: 0
    m_TextureGroup: 4
  - m_Indexes: 3f0000003c0000003d0000003e0000003f0000003d000000
    m_SmoothingGroup: 1
    m_Uv:
      m_UseWorldSpace: 0
      m_FlipU: 0
      m_FlipV: 0
      m_SwapUV: 0
      m_Fill: 1
      m_Scale: {x: 1, y: 1}
      m_Offset: {x: 0, y: 0}
      m_Rotation: 0
      m_Anchor: 9
    m_Material: {fileID: 2100000, guid: c22777d6e868e4f2fb421913386b154e, type: 2}
    m_SubmeshIndex: 0
    m_ManualUV: 0
    elementGroup: 0
    m_TextureGroup: 4
  - m_Indexes: 420000004300000041000000430000004000000041000000
    m_SmoothingGroup: 1
    m_Uv:
      m_UseWorldSpace: 0
      m_FlipU: 0
      m_FlipV: 0
      m_SwapUV: 0
      m_Fill: 1
      m_Scale: {x: 1, y: 1}
      m_Offset: {x: 0, y: 0}
      m_Rotation: 0
      m_Anchor: 9
    m_Material: {fileID: 2100000, guid: c22777d6e868e4f2fb421913386b154e, type: 2}
    m_SubmeshIndex: 0
    m_ManualUV: 0
    elementGroup: 0
    m_TextureGroup: 5
  - m_Indexes: 460000004700000044000000460000004400000045000000
    m_SmoothingGroup: 1
    m_Uv:
      m_UseWorldSpace: 0
      m_FlipU: 0
      m_FlipV: 0
      m_SwapUV: 0
      m_Fill: 1
      m_Scale: {x: 1, y: 1}
      m_Offset: {x: 0, y: 0}
      m_Rotation: 0
      m_Anchor: 9
    m_Material: {fileID: 2100000, guid: c22777d6e868e4f2fb421913386b154e, type: 2}
    m_SubmeshIndex: 0
    m_ManualUV: 0
    elementGroup: 0
    m_TextureGroup: 5
  - m_Indexes: 490000004b00000048000000490000004a0000004b000000
    m_SmoothingGroup: 1
    m_Uv:
      m_UseWorldSpace: 0
      m_FlipU: 0
      m_FlipV: 0
      m_SwapUV: 0
      m_Fill: 1
      m_Scale: {x: 1, y: 1}
      m_Offset: {x: 0, y: 0}
      m_Rotation: 0
      m_Anchor: 9
    m_Material: {fileID: 2100000, guid: c22777d6e868e4f2fb421913386b154e, type: 2}
    m_SubmeshIndex: 0
    m_ManualUV: 0
    elementGroup: 0
    m_TextureGroup: 5
  - m_Indexes: 4f0000004c0000004d0000004e0000004f0000004d000000
    m_SmoothingGroup: 1
    m_Uv:
      m_UseWorldSpace: 0
      m_FlipU: 0
      m_FlipV: 0
      m_SwapUV: 0
      m_Fill: 1
      m_Scale: {x: 1, y: 1}
      m_Offset: {x: 0, y: 0}
      m_Rotation: 0
      m_Anchor: 9
    m_Material: {fileID: 2100000, guid: c22777d6e868e4f2fb421913386b154e, type: 2}
    m_SubmeshIndex: 0
    m_ManualUV: 0
    elementGroup: 0
    m_TextureGroup: 5
  - m_Indexes: 520000005000000051000000520000005300000050000000
    m_SmoothingGroup: 1
    m_Uv:
      m_UseWorldSpace: 0
      m_FlipU: 0
      m_FlipV: 0
      m_SwapUV: 0
      m_Fill: 1
      m_Scale: {x: 1, y: 1}
      m_Offset: {x: 0, y: 0}
      m_Rotation: 0
      m_Anchor: 9
    m_Material: {fileID: 2100000, guid: c22777d6e868e4f2fb421913386b154e, type: 2}
    m_SubmeshIndex: 0
    m_ManualUV: 0
    elementGroup: 0
    m_TextureGroup: 6
  - m_Indexes: 560000005400000055000000560000005700000054000000
    m_SmoothingGroup: 1
    m_Uv:
      m_UseWorldSpace: 0
      m_FlipU: 0
      m_FlipV: 0
      m_SwapUV: 0
      m_Fill: 1
      m_Scale: {x: 1, y: 1}
      m_Offset: {x: 0, y: 0}
      m_Rotation: 0
      m_Anchor: 9
    m_Material: {fileID: 2100000, guid: c22777d6e868e4f2fb421913386b154e, type: 2}
    m_SubmeshIndex: 0
    m_ManualUV: 0
    elementGroup: 0
    m_TextureGroup: 6
  - m_Indexes: 590000005b00000058000000590000005a0000005b000000
    m_SmoothingGroup: 1
    m_Uv:
      m_UseWorldSpace: 0
      m_FlipU: 0
      m_FlipV: 0
      m_SwapUV: 0
      m_Fill: 1
      m_Scale: {x: 1, y: 1}
      m_Offset: {x: 0, y: 0}
      m_Rotation: 0
      m_Anchor: 9
    m_Material: {fileID: 2100000, guid: c22777d6e868e4f2fb421913386b154e, type: 2}
    m_SubmeshIndex: 0
    m_ManualUV: 0
    elementGroup: 0
    m_TextureGroup: 6
  - m_Indexes: 5c0000005e0000005f0000005c0000005d0000005e000000
    m_SmoothingGroup: 1
    m_Uv:
      m_UseWorldSpace: 0
      m_FlipU: 0
      m_FlipV: 0
      m_SwapUV: 0
      m_Fill: 1
      m_Scale: {x: 1, y: 1}
      m_Offset: {x: 0, y: 0}
      m_Rotation: 0
      m_Anchor: 9
    m_Material: {fileID: 2100000, guid: c22777d6e868e4f2fb421913386b154e, type: 2}
    m_SubmeshIndex: 0
    m_ManualUV: 0
    elementGroup: 0
    m_TextureGroup: 6
  - m_Indexes: 610000006200000063000000610000006300000060000000
    m_SmoothingGroup: 1
    m_Uv:
      m_UseWorldSpace: 0
      m_FlipU: 0
      m_FlipV: 0
      m_SwapUV: 0
      m_Fill: 1
      m_Scale: {x: 1, y: 1}
      m_Offset: {x: 0, y: 0}
      m_Rotation: 0
      m_Anchor: 9
    m_Material: {fileID: 2100000, guid: c22777d6e868e4f2fb421913386b154e, type: 2}
    m_SubmeshIndex: 0
    m_ManualUV: 0
    elementGroup: 0
    m_TextureGroup: 7
  - m_Indexes: 650000006600000067000000650000006700000064000000
    m_SmoothingGroup: 1
    m_Uv:
      m_UseWorldSpace: 0
      m_FlipU: 0
      m_FlipV: 0
      m_SwapUV: 0
      m_Fill: 1
      m_Scale: {x: 1, y: 1}
      m_Offset: {x: 0, y: 0}
      m_Rotation: 0
      m_Anchor: 9
    m_Material: {fileID: 2100000, guid: c22777d6e868e4f2fb421913386b154e, type: 2}
    m_SubmeshIndex: 0
    m_ManualUV: 0
    elementGroup: 0
    m_TextureGroup: 7
  - m_Indexes: 68000000690000006a000000680000006a0000006b000000
    m_SmoothingGroup: 1
    m_Uv:
      m_UseWorldSpace: 0
      m_FlipU: 0
      m_FlipV: 0
      m_SwapUV: 0
      m_Fill: 1
      m_Scale: {x: 1, y: 1}
      m_Offset: {x: 0, y: 0}
      m_Rotation: 0
      m_Anchor: 9
    m_Material: {fileID: 2100000, guid: c22777d6e868e4f2fb421913386b154e, type: 2}
    m_SubmeshIndex: 0
    m_ManualUV: 0
    elementGroup: 0
    m_TextureGroup: 7
  - m_Indexes: 6f0000006c0000006d0000006f0000006d0000006e000000
    m_SmoothingGroup: 1
    m_Uv:
      m_UseWorldSpace: 0
      m_FlipU: 0
      m_FlipV: 0
      m_SwapUV: 0
      m_Fill: 1
      m_Scale: {x: 1, y: 1}
      m_Offset: {x: 0, y: 0}
      m_Rotation: 0
      m_Anchor: 9
    m_Material: {fileID: 2100000, guid: c22777d6e868e4f2fb421913386b154e, type: 2}
    m_SubmeshIndex: 0
    m_ManualUV: 0
    elementGroup: 0
    m_TextureGroup: 7
  - m_Indexes: 730000007000000071000000720000007300000071000000
    m_SmoothingGroup: 1
    m_Uv:
      m_UseWorldSpace: 0
      m_FlipU: 0
      m_FlipV: 0
      m_SwapUV: 0
      m_Fill: 1
      m_Scale: {x: 1, y: 1}
      m_Offset: {x: 0, y: 0}
      m_Rotation: 0
      m_Anchor: 9
    m_Material: {fileID: 2100000, guid: c22777d6e868e4f2fb421913386b154e, type: 2}
    m_SubmeshIndex: 0
    m_ManualUV: 0
    elementGroup: 0
    m_TextureGroup: 8
  - m_Indexes: 770000007400000075000000760000007700000075000000
    m_SmoothingGroup: 1
    m_Uv:
      m_UseWorldSpace: 0
      m_FlipU: 0
      m_FlipV: 0
      m_SwapUV: 0
      m_Fill: 1
      m_Scale: {x: 1, y: 1}
      m_Offset: {x: 0, y: 0}
      m_Rotation: 0
      m_Anchor: 9
    m_Material: {fileID: 2100000, guid: c22777d6e868e4f2fb421913386b154e, type: 2}
    m_SubmeshIndex: 0
    m_ManualUV: 0
    elementGroup: 0
    m_TextureGroup: 8
  - m_Indexes: 7a0000007b00000078000000790000007a00000078000000
    m_SmoothingGroup: 1
    m_Uv:
      m_UseWorldSpace: 0
      m_FlipU: 0
      m_FlipV: 0
      m_SwapUV: 0
      m_Fill: 1
      m_Scale: {x: 1, y: 1}
      m_Offset: {x: 0, y: 0}
      m_Rotation: 0
      m_Anchor: 9
    m_Material: {fileID: 2100000, guid: c22777d6e868e4f2fb421913386b154e, type: 2}
    m_SubmeshIndex: 0
    m_ManualUV: 0
    elementGroup: 0
    m_TextureGroup: 8
  - m_Indexes: 7d0000007e0000007f0000007c0000007d0000007f000000
    m_SmoothingGroup: 1
    m_Uv:
      m_UseWorldSpace: 0
      m_FlipU: 0
      m_FlipV: 0
      m_SwapUV: 0
      m_Fill: 1
      m_Scale: {x: 1, y: 1}
      m_Offset: {x: 0, y: 0}
      m_Rotation: 0
      m_Anchor: 9
    m_Material: {fileID: 2100000, guid: c22777d6e868e4f2fb421913386b154e, type: 2}
    m_SubmeshIndex: 0
    m_ManualUV: 0
    elementGroup: 0
    m_TextureGroup: 8
  - m_Indexes: 810000008200000080000000800000008200000083000000
    m_SmoothingGroup: 0
    m_Uv:
      m_UseWorldSpace: 0
      m_FlipU: 0
      m_FlipV: 0
      m_SwapUV: 0
      m_Fill: 1
      m_Scale: {x: 1, y: 1}
      m_Offset: {x: 0, y: 0}
      m_Rotation: 0
      m_Anchor: 9
    m_Material: {fileID: 2100000, guid: c22777d6e868e4f2fb421913386b154e, type: 2}
    m_SubmeshIndex: 0
    m_ManualUV: 0
    elementGroup: 0
    m_TextureGroup: 9
  - m_Indexes: 840000008500000086000000840000008600000087000000
    m_SmoothingGroup: 0
    m_Uv:
      m_UseWorldSpace: 0
      m_FlipU: 0
      m_FlipV: 0
      m_SwapUV: 0
      m_Fill: 1
      m_Scale: {x: 1, y: 1}
      m_Offset: {x: 0, y: 0}
      m_Rotation: 0
      m_Anchor: 9
    m_Material: {fileID: 2100000, guid: c22777d6e868e4f2fb421913386b154e, type: 2}
    m_SubmeshIndex: 0
    m_ManualUV: 0
    elementGroup: 0
    m_TextureGroup: 9
  - m_Indexes: 8b00000088000000890000008a0000008b00000089000000
    m_SmoothingGroup: 0
    m_Uv:
      m_UseWorldSpace: 0
      m_FlipU: 0
      m_FlipV: 0
      m_SwapUV: 0
      m_Fill: 1
      m_Scale: {x: 1, y: 1}
      m_Offset: {x: 0, y: 0}
      m_Rotation: 0
      m_Anchor: 9
    m_Material: {fileID: 2100000, guid: c22777d6e868e4f2fb421913386b154e, type: 2}
    m_SubmeshIndex: 0
    m_ManualUV: 0
    elementGroup: 0
    m_TextureGroup: 9
  - m_Indexes: 8f0000008c0000008d0000008f0000008d0000008e000000
    m_SmoothingGroup: 0
    m_Uv:
      m_UseWorldSpace: 0
      m_FlipU: 0
      m_FlipV: 0
      m_SwapUV: 0
      m_Fill: 1
      m_Scale: {x: 1, y: 1}
      m_Offset: {x: 0, y: 0}
      m_Rotation: 0
      m_Anchor: 9
    m_Material: {fileID: 2100000, guid: c22777d6e868e4f2fb421913386b154e, type: 2}
    m_SubmeshIndex: 0
    m_ManualUV: 0
    elementGroup: 0
    m_TextureGroup: 10
  - m_Indexes: 930000009000000092000000920000009000000091000000
    m_SmoothingGroup: 0
    m_Uv:
      m_UseWorldSpace: 0
      m_FlipU: 0
      m_FlipV: 0
      m_SwapUV: 0
      m_Fill: 1
      m_Scale: {x: 1, y: 1}
      m_Offset: {x: 0, y: 0}
      m_Rotation: 0
      m_Anchor: 9
    m_Material: {fileID: 2100000, guid: c22777d6e868e4f2fb421913386b154e, type: 2}
    m_SubmeshIndex: 0
    m_ManualUV: 0
    elementGroup: 0
    m_TextureGroup: 10
  - m_Indexes: 960000009700000095000000970000009400000095000000
    m_SmoothingGroup: 0
    m_Uv:
      m_UseWorldSpace: 0
      m_FlipU: 0
      m_FlipV: 0
      m_SwapUV: 0
      m_Fill: 1
      m_Scale: {x: 1, y: 1}
      m_Offset: {x: 0, y: 0}
      m_Rotation: 0
      m_Anchor: 9
    m_Material: {fileID: 2100000, guid: c22777d6e868e4f2fb421913386b154e, type: 2}
    m_SubmeshIndex: 0
    m_ManualUV: 0
    elementGroup: 0
    m_TextureGroup: 10
  - m_Indexes: 9b000000980000009a00000098000000990000009a000000
    m_SmoothingGroup: 0
    m_Uv:
      m_UseWorldSpace: 0
      m_FlipU: 0
      m_FlipV: 0
      m_SwapUV: 0
      m_Fill: 1
      m_Scale: {x: 1, y: 1}
      m_Offset: {x: 0, y: 0}
      m_Rotation: 0
      m_Anchor: 9
    m_Material: {fileID: 2100000, guid: c22777d6e868e4f2fb421913386b154e, type: 2}
    m_SubmeshIndex: 0
    m_ManualUV: 0
    elementGroup: 0
    m_TextureGroup: 11
  - m_Indexes: 9e0000009f0000009c0000009e0000009c0000009d000000
    m_SmoothingGroup: 0
    m_Uv:
      m_UseWorldSpace: 0
      m_FlipU: 0
      m_FlipV: 0
      m_SwapUV: 0
      m_Fill: 1
      m_Scale: {x: 1, y: 1}
      m_Offset: {x: 0, y: 0}
      m_Rotation: 0
      m_Anchor: 9
    m_Material: {fileID: 2100000, guid: c22777d6e868e4f2fb421913386b154e, type: 2}
    m_SubmeshIndex: 0
    m_ManualUV: 0
    elementGroup: 0
    m_TextureGroup: 11
  - m_Indexes: a1000000a2000000a0000000a2000000a3000000a0000000
    m_SmoothingGroup: 0
    m_Uv:
      m_UseWorldSpace: 0
      m_FlipU: 0
      m_FlipV: 0
      m_SwapUV: 0
      m_Fill: 1
      m_Scale: {x: 1, y: 1}
      m_Offset: {x: 0, y: 0}
      m_Rotation: 0
      m_Anchor: 9
    m_Material: {fileID: 2100000, guid: c22777d6e868e4f2fb421913386b154e, type: 2}
    m_SubmeshIndex: 0
    m_ManualUV: 0
    elementGroup: 0
    m_TextureGroup: 11
  - m_Indexes: a7000000a4000000a6000000a6000000a4000000a5000000
    m_SmoothingGroup: 0
    m_Uv:
      m_UseWorldSpace: 0
      m_FlipU: 0
      m_FlipV: 0
      m_SwapUV: 0
      m_Fill: 1
      m_Scale: {x: 1, y: 1}
      m_Offset: {x: 0, y: 0}
      m_Rotation: 0
      m_Anchor: 9
    m_Material: {fileID: 2100000, guid: c22777d6e868e4f2fb421913386b154e, type: 2}
    m_SubmeshIndex: 0
    m_ManualUV: 0
    elementGroup: 0
    m_TextureGroup: 12
  - m_Indexes: ab000000a8000000aa000000aa000000a8000000a9000000
    m_SmoothingGroup: 0
    m_Uv:
      m_UseWorldSpace: 0
      m_FlipU: 0
      m_FlipV: 0
      m_SwapUV: 0
      m_Fill: 1
      m_Scale: {x: 1, y: 1}
      m_Offset: {x: 0, y: 0}
      m_Rotation: 0
      m_Anchor: 9
    m_Material: {fileID: 2100000, guid: c22777d6e868e4f2fb421913386b154e, type: 2}
    m_SubmeshIndex: 0
    m_ManualUV: 0
    elementGroup: 0
    m_TextureGroup: 12
  - m_Indexes: ad000000ae000000af000000ad000000af000000ac000000
    m_SmoothingGroup: 0
    m_Uv:
      m_UseWorldSpace: 0
      m_FlipU: 0
      m_FlipV: 0
      m_SwapUV: 0
      m_Fill: 1
      m_Scale: {x: 1, y: 1}
      m_Offset: {x: 0, y: 0}
      m_Rotation: 0
      m_Anchor: 9
    m_Material: {fileID: 2100000, guid: c22777d6e868e4f2fb421913386b154e, type: 2}
    m_SubmeshIndex: 0
    m_ManualUV: 0
    elementGroup: 0
    m_TextureGroup: 12
  - m_Indexes: b2000000b3000000b0000000b1000000b2000000b0000000
    m_SmoothingGroup: 0
    m_Uv:
      m_UseWorldSpace: 0
      m_FlipU: 0
      m_FlipV: 0
      m_SwapUV: 0
      m_Fill: 1
      m_Scale: {x: 1, y: 1}
      m_Offset: {x: 0, y: 0}
      m_Rotation: 0
      m_Anchor: 9
    m_Material: {fileID: 2100000, guid: c22777d6e868e4f2fb421913386b154e, type: 2}
    m_SubmeshIndex: 0
    m_ManualUV: 0
    elementGroup: 0
    m_TextureGroup: 13
  - m_Indexes: b6000000b7000000b4000000b6000000b4000000b5000000
    m_SmoothingGroup: 0
    m_Uv:
      m_UseWorldSpace: 0
      m_FlipU: 0
      m_FlipV: 0
      m_SwapUV: 0
      m_Fill: 1
      m_Scale: {x: 1, y: 1}
      m_Offset: {x: 0, y: 0}
      m_Rotation: 0
      m_Anchor: 9
    m_Material: {fileID: 2100000, guid: c22777d6e868e4f2fb421913386b154e, type: 2}
    m_SubmeshIndex: 0
    m_ManualUV: 0
    elementGroup: 0
    m_TextureGroup: 13
  - m_Indexes: b8000000b9000000bb000000b9000000ba000000bb000000
    m_SmoothingGroup: 0
    m_Uv:
      m_UseWorldSpace: 0
      m_FlipU: 0
      m_FlipV: 0
      m_SwapUV: 0
      m_Fill: 1
      m_Scale: {x: 1, y: 1}
      m_Offset: {x: 0, y: 0}
      m_Rotation: 0
      m_Anchor: 9
    m_Material: {fileID: 2100000, guid: c22777d6e868e4f2fb421913386b154e, type: 2}
    m_SubmeshIndex: 0
    m_ManualUV: 0
    elementGroup: 0
    m_TextureGroup: 13
  - m_Indexes: be000000bf000000bc000000be000000bc000000bd000000
    m_SmoothingGroup: 0
    m_Uv:
      m_UseWorldSpace: 0
      m_FlipU: 0
      m_FlipV: 0
      m_SwapUV: 0
      m_Fill: 1
      m_Scale: {x: 1, y: 1}
      m_Offset: {x: 0, y: 0}
      m_Rotation: 0
      m_Anchor: 9
    m_Material: {fileID: 2100000, guid: c22777d6e868e4f2fb421913386b154e, type: 2}
    m_SubmeshIndex: 0
    m_ManualUV: 0
    elementGroup: 0
    m_TextureGroup: 14
  - m_Indexes: c1000000c2000000c0000000c2000000c3000000c0000000
    m_SmoothingGroup: 0
    m_Uv:
      m_UseWorldSpace: 0
      m_FlipU: 0
      m_FlipV: 0
      m_SwapUV: 0
      m_Fill: 1
      m_Scale: {x: 1, y: 1}
      m_Offset: {x: 0, y: 0}
      m_Rotation: 0
      m_Anchor: 9
    m_Material: {fileID: 2100000, guid: c22777d6e868e4f2fb421913386b154e, type: 2}
    m_SubmeshIndex: 0
    m_ManualUV: 0
    elementGroup: 0
    m_TextureGroup: 14
  - m_Indexes: c4000000c5000000c7000000c7000000c5000000c6000000
    m_SmoothingGroup: 0
    m_Uv:
      m_UseWorldSpace: 0
      m_FlipU: 0
      m_FlipV: 0
      m_SwapUV: 0
      m_Fill: 1
      m_Scale: {x: 1, y: 1}
      m_Offset: {x: 0, y: 0}
      m_Rotation: 0
      m_Anchor: 9
    m_Material: {fileID: 2100000, guid: c22777d6e868e4f2fb421913386b154e, type: 2}
    m_SubmeshIndex: 0
    m_ManualUV: 0
    elementGroup: 0
    m_TextureGroup: 14
  - m_Indexes: c9000000ca000000c8000000c8000000ca000000cb000000
    m_SmoothingGroup: 0
    m_Uv:
      m_UseWorldSpace: 0
      m_FlipU: 0
      m_FlipV: 0
      m_SwapUV: 0
      m_Fill: 1
      m_Scale: {x: 1, y: 1}
      m_Offset: {x: 0, y: 0}
      m_Rotation: 0
      m_Anchor: 9
    m_Material: {fileID: 2100000, guid: c22777d6e868e4f2fb421913386b154e, type: 2}
    m_SubmeshIndex: 0
    m_ManualUV: 0
    elementGroup: 0
    m_TextureGroup: 15
  - m_Indexes: cc000000cd000000ce000000cc000000ce000000cf000000
    m_SmoothingGroup: 0
    m_Uv:
      m_UseWorldSpace: 0
      m_FlipU: 0
      m_FlipV: 0
      m_SwapUV: 0
      m_Fill: 1
      m_Scale: {x: 1, y: 1}
      m_Offset: {x: 0, y: 0}
      m_Rotation: 0
      m_Anchor: 9
    m_Material: {fileID: 2100000, guid: c22777d6e868e4f2fb421913386b154e, type: 2}
    m_SubmeshIndex: 0
    m_ManualUV: 0
    elementGroup: 0
    m_TextureGroup: 15
  - m_Indexes: d0000000d1000000d3000000d3000000d1000000d2000000
    m_SmoothingGroup: 0
    m_Uv:
      m_UseWorldSpace: 0
      m_FlipU: 0
      m_FlipV: 0
      m_SwapUV: 0
      m_Fill: 1
      m_Scale: {x: 1, y: 1}
      m_Offset: {x: 0, y: 0}
      m_Rotation: 0
      m_Anchor: 9
    m_Material: {fileID: 2100000, guid: c22777d6e868e4f2fb421913386b154e, type: 2}
    m_SubmeshIndex: 0
    m_ManualUV: 0
    elementGroup: 0
    m_TextureGroup: 15
  - m_Indexes: d5000000d6000000d4000000d6000000d7000000d4000000
    m_SmoothingGroup: 0
    m_Uv:
      m_UseWorldSpace: 0
      m_FlipU: 0
      m_FlipV: 0
      m_SwapUV: 0
      m_Fill: 1
      m_Scale: {x: 1, y: 1}
      m_Offset: {x: 0, y: 0}
      m_Rotation: 0
      m_Anchor: 9
    m_Material: {fileID: 2100000, guid: c22777d6e868e4f2fb421913386b154e, type: 2}
    m_SubmeshIndex: 0
    m_ManualUV: 0
    elementGroup: 0
    m_TextureGroup: 16
  - m_Indexes: d9000000da000000d8000000d8000000da000000db000000
    m_SmoothingGroup: 0
    m_Uv:
      m_UseWorldSpace: 0
      m_FlipU: 0
      m_FlipV: 0
      m_SwapUV: 0
      m_Fill: 1
      m_Scale: {x: 1, y: 1}
      m_Offset: {x: 0, y: 0}
      m_Rotation: 0
      m_Anchor: 9
    m_Material: {fileID: 2100000, guid: c22777d6e868e4f2fb421913386b154e, type: 2}
    m_SubmeshIndex: 0
    m_ManualUV: 0
    elementGroup: 0
    m_TextureGroup: 16
  - m_Indexes: df000000dc000000dd000000de000000df000000dd000000
    m_SmoothingGroup: 0
    m_Uv:
      m_UseWorldSpace: 0
      m_FlipU: 0
      m_FlipV: 0
      m_SwapUV: 0
      m_Fill: 1
      m_Scale: {x: 1, y: 1}
      m_Offset: {x: 0, y: 0}
      m_Rotation: 0
      m_Anchor: 9
    m_Material: {fileID: 2100000, guid: c22777d6e868e4f2fb421913386b154e, type: 2}
    m_SubmeshIndex: 0
    m_ManualUV: 0
    elementGroup: 0
    m_TextureGroup: 16
  - m_Indexes: e0000000e2000000e3000000e0000000e1000000e2000000
    m_SmoothingGroup: 0
    m_Uv:
      m_UseWorldSpace: 0
      m_FlipU: 0
      m_FlipV: 0
      m_SwapUV: 0
      m_Fill: 1
      m_Scale: {x: 1, y: 1}
      m_Offset: {x: 0, y: 0}
      m_Rotation: 0
      m_Anchor: 9
    m_Material: {fileID: 2100000, guid: c22777d6e868e4f2fb421913386b154e, type: 2}
    m_SubmeshIndex: 0
    m_ManualUV: 0
    elementGroup: 0
    m_TextureGroup: 17
  - m_Indexes: e7000000e4000000e6000000e4000000e5000000e6000000
    m_SmoothingGroup: 0
    m_Uv:
      m_UseWorldSpace: 0
      m_FlipU: 0
      m_FlipV: 0
      m_SwapUV: 0
      m_Fill: 1
      m_Scale: {x: 1, y: 1}
      m_Offset: {x: 0, y: 0}
      m_Rotation: 0
      m_Anchor: 9
    m_Material: {fileID: 2100000, guid: c22777d6e868e4f2fb421913386b154e, type: 2}
    m_SubmeshIndex: 1
    m_ManualUV: 0
    elementGroup: 0
    m_TextureGroup: 17
  - m_Indexes: ea000000eb000000e9000000e9000000eb000000e8000000
    m_SmoothingGroup: 0
    m_Uv:
      m_UseWorldSpace: 0
      m_FlipU: 0
      m_FlipV: 0
      m_SwapUV: 0
      m_Fill: 1
      m_Scale: {x: 1, y: 1}
      m_Offset: {x: 0, y: 0}
      m_Rotation: 0
      m_Anchor: 9
    m_Material: {fileID: 2100000, guid: c22777d6e868e4f2fb421913386b154e, type: 2}
    m_SubmeshIndex: 0
    m_ManualUV: 0
    elementGroup: 0
    m_TextureGroup: 17
  - m_Indexes: ec000000ed000000ee000000ec000000ee000000ef000000
    m_SmoothingGroup: 0
    m_Uv:
      m_UseWorldSpace: 0
      m_FlipU: 0
      m_FlipV: 0
      m_SwapUV: 0
      m_Fill: 1
      m_Scale: {x: 1, y: 1}
      m_Offset: {x: 0, y: 0}
      m_Rotation: 0
      m_Anchor: 9
    m_Material: {fileID: 2100000, guid: c22777d6e868e4f2fb421913386b154e, type: 2}
    m_SubmeshIndex: 0
    m_ManualUV: 0
    elementGroup: 0
    m_TextureGroup: 18
  - m_Indexes: f1000000f2000000f0000000f0000000f2000000f3000000
    m_SmoothingGroup: 0
    m_Uv:
      m_UseWorldSpace: 0
      m_FlipU: 0
      m_FlipV: 0
      m_SwapUV: 0
      m_Fill: 1
      m_Scale: {x: 1, y: 1}
      m_Offset: {x: 0, y: 0}
      m_Rotation: 0
      m_Anchor: 9
    m_Material: {fileID: 2100000, guid: c22777d6e868e4f2fb421913386b154e, type: 2}
    m_SubmeshIndex: 1
    m_ManualUV: 0
    elementGroup: 0
    m_TextureGroup: 18
  - m_Indexes: f7000000f4000000f6000000f4000000f5000000f6000000
    m_SmoothingGroup: 0
    m_Uv:
      m_UseWorldSpace: 0
      m_FlipU: 0
      m_FlipV: 0
      m_SwapUV: 0
      m_Fill: 1
      m_Scale: {x: 1, y: 1}
      m_Offset: {x: 0, y: 0}
      m_Rotation: 0
      m_Anchor: 9
    m_Material: {fileID: 2100000, guid: c22777d6e868e4f2fb421913386b154e, type: 2}
    m_SubmeshIndex: 0
    m_ManualUV: 0
    elementGroup: 0
    m_TextureGroup: 18
  - m_Indexes: f9000000fa000000fb000000f9000000fb000000f8000000
    m_SmoothingGroup: 0
    m_Uv:
      m_UseWorldSpace: 0
      m_FlipU: 0
      m_FlipV: 0
      m_SwapUV: 0
      m_Fill: 1
      m_Scale: {x: 1, y: 1}
      m_Offset: {x: 0, y: 0}
      m_Rotation: 0
      m_Anchor: 9
    m_Material: {fileID: 2100000, guid: c22777d6e868e4f2fb421913386b154e, type: 2}
    m_SubmeshIndex: 0
    m_ManualUV: 0
    elementGroup: 0
    m_TextureGroup: 19
  - m_Indexes: fd000000fe000000fc000000fe000000ff000000fc000000
    m_SmoothingGroup: 0
    m_Uv:
      m_UseWorldSpace: 0
      m_FlipU: 0
      m_FlipV: 0
      m_SwapUV: 0
      m_Fill: 1
      m_Scale: {x: 1, y: 1}
      m_Offset: {x: 0, y: 0}
      m_Rotation: 0
      m_Anchor: 9
    m_Material: {fileID: 2100000, guid: c22777d6e868e4f2fb421913386b154e, type: 2}
    m_SubmeshIndex: 1
    m_ManualUV: 0
    elementGroup: 0
    m_TextureGroup: 19
  - m_Indexes: 030100000001000001010000030100000101000002010000
    m_SmoothingGroup: 0
    m_Uv:
      m_UseWorldSpace: 0
      m_FlipU: 0
      m_FlipV: 0
      m_SwapUV: 0
      m_Fill: 1
      m_Scale: {x: 1, y: 1}
      m_Offset: {x: 0, y: 0}
      m_Rotation: 0
      m_Anchor: 9
    m_Material: {fileID: 2100000, guid: c22777d6e868e4f2fb421913386b154e, type: 2}
    m_SubmeshIndex: 0
    m_ManualUV: 0
    elementGroup: 0
    m_TextureGroup: 19
  - m_Indexes: 050100000601000004010000060100000701000004010000
    m_SmoothingGroup: 0
    m_Uv:
      m_UseWorldSpace: 0
      m_FlipU: 0
      m_FlipV: 0
      m_SwapUV: 0
      m_Fill: 1
      m_Scale: {x: 1, y: 1}
      m_Offset: {x: 0, y: 0}
      m_Rotation: 0
      m_Anchor: 9
    m_Material: {fileID: 2100000, guid: c22777d6e868e4f2fb421913386b154e, type: 2}
    m_SubmeshIndex: 0
    m_ManualUV: 0
    elementGroup: 0
    m_TextureGroup: 20
  - m_Indexes: 090100000a01000008010000080100000a0100000b010000
    m_SmoothingGroup: 0
    m_Uv:
      m_UseWorldSpace: 0
      m_FlipU: 0
      m_FlipV: 0
      m_SwapUV: 0
      m_Fill: 1
      m_Scale: {x: 1, y: 1}
      m_Offset: {x: 0, y: 0}
      m_Rotation: 0
      m_Anchor: 9
    m_Material: {fileID: 2100000, guid: c22777d6e868e4f2fb421913386b154e, type: 2}
    m_SubmeshIndex: 1
    m_ManualUV: 0
    elementGroup: 0
    m_TextureGroup: 20
  - m_Indexes: 0c0100000d0100000f0100000f0100000d0100000e010000
    m_SmoothingGroup: 0
    m_Uv:
      m_UseWorldSpace: 0
      m_FlipU: 0
      m_FlipV: 0
      m_SwapUV: 0
      m_Fill: 1
      m_Scale: {x: 1, y: 1}
      m_Offset: {x: 0, y: 0}
      m_Rotation: 0
      m_Anchor: 9
    m_Material: {fileID: 2100000, guid: c22777d6e868e4f2fb421913386b154e, type: 2}
    m_SubmeshIndex: 0
    m_ManualUV: 0
    elementGroup: 0
    m_TextureGroup: 20
  - m_Indexes: 120100001301000010010000120100001001000011010000
    m_SmoothingGroup: 0
    m_Uv:
      m_UseWorldSpace: 0
      m_FlipU: 0
      m_FlipV: 0
      m_SwapUV: 0
      m_Fill: 1
      m_Scale: {x: 1, y: 1}
      m_Offset: {x: 0, y: 0}
      m_Rotation: 0
      m_Anchor: 9
    m_Material: {fileID: 2100000, guid: c22777d6e868e4f2fb421913386b154e, type: 2}
    m_SubmeshIndex: 0
    m_ManualUV: 0
    elementGroup: 0
    m_TextureGroup: 21
  - m_Indexes: 150100001601000014010000160100001701000014010000
    m_SmoothingGroup: 0
    m_Uv:
      m_UseWorldSpace: 0
      m_FlipU: 0
      m_FlipV: 0
      m_SwapUV: 0
      m_Fill: 1
      m_Scale: {x: 1, y: 1}
      m_Offset: {x: 0, y: 0}
      m_Rotation: 0
      m_Anchor: 9
    m_Material: {fileID: 2100000, guid: c22777d6e868e4f2fb421913386b154e, type: 2}
    m_SubmeshIndex: 1
    m_ManualUV: 0
    elementGroup: 0
    m_TextureGroup: 21
  - m_Indexes: 190100001b01000018010000190100001a0100001b010000
    m_SmoothingGroup: 0
    m_Uv:
      m_UseWorldSpace: 0
      m_FlipU: 0
      m_FlipV: 0
      m_SwapUV: 0
      m_Fill: 1
      m_Scale: {x: 1, y: 1}
      m_Offset: {x: 0, y: 0}
      m_Rotation: 0
      m_Anchor: 9
    m_Material: {fileID: 2100000, guid: c22777d6e868e4f2fb421913386b154e, type: 2}
    m_SubmeshIndex: 0
    m_ManualUV: 0
    elementGroup: 0
    m_TextureGroup: 21
  - m_Indexes: 1f0100001c0100001e0100001e0100001c0100001d010000
    m_SmoothingGroup: 0
    m_Uv:
      m_UseWorldSpace: 0
      m_FlipU: 0
      m_FlipV: 0
      m_SwapUV: 0
      m_Fill: 1
      m_Scale: {x: 1, y: 1}
      m_Offset: {x: 0, y: 0}
      m_Rotation: 0
      m_Anchor: 9
    m_Material: {fileID: 2100000, guid: c22777d6e868e4f2fb421913386b154e, type: 2}
    m_SubmeshIndex: 0
    m_ManualUV: 0
    elementGroup: 0
    m_TextureGroup: 22
  - m_Indexes: 220100002301000020010000220100002001000021010000
    m_SmoothingGroup: 0
    m_Uv:
      m_UseWorldSpace: 0
      m_FlipU: 0
      m_FlipV: 0
      m_SwapUV: 0
      m_Fill: 1
      m_Scale: {x: 1, y: 1}
      m_Offset: {x: 0, y: 0}
      m_Rotation: 0
      m_Anchor: 9
    m_Material: {fileID: 2100000, guid: c22777d6e868e4f2fb421913386b154e, type: 2}
    m_SubmeshIndex: 1
    m_ManualUV: 0
    elementGroup: 0
    m_TextureGroup: 22
  - m_Indexes: 240100002501000027010000250100002601000027010000
    m_SmoothingGroup: 0
    m_Uv:
      m_UseWorldSpace: 0
      m_FlipU: 0
      m_FlipV: 0
      m_SwapUV: 0
      m_Fill: 1
      m_Scale: {x: 1, y: 1}
      m_Offset: {x: 0, y: 0}
      m_Rotation: 0
      m_Anchor: 9
    m_Material: {fileID: 2100000, guid: c22777d6e868e4f2fb421913386b154e, type: 2}
    m_SubmeshIndex: 0
    m_ManualUV: 0
    elementGroup: 0
    m_TextureGroup: 22
  - m_Indexes: 2b010000280100002a0100002a0100002801000029010000
    m_SmoothingGroup: 0
    m_Uv:
      m_UseWorldSpace: 0
      m_FlipU: 0
      m_FlipV: 0
      m_SwapUV: 0
      m_Fill: 1
      m_Scale: {x: 1, y: 1}
      m_Offset: {x: 0, y: 0}
      m_Rotation: 0
      m_Anchor: 9
    m_Material: {fileID: 2100000, guid: c22777d6e868e4f2fb421913386b154e, type: 2}
    m_SubmeshIndex: 0
    m_ManualUV: 0
    elementGroup: 0
    m_TextureGroup: 23
  - m_Indexes: 2f0100002c0100002e0100002c0100002d0100002e010000
    m_SmoothingGroup: 0
    m_Uv:
      m_UseWorldSpace: 0
      m_FlipU: 0
      m_FlipV: 0
      m_SwapUV: 0
      m_Fill: 1
      m_Scale: {x: 1, y: 1}
      m_Offset: {x: 0, y: 0}
      m_Rotation: 0
      m_Anchor: 9
    m_Material: {fileID: 2100000, guid: c22777d6e868e4f2fb421913386b154e, type: 2}
    m_SubmeshIndex: 1
    m_ManualUV: 0
    elementGroup: 0
    m_TextureGroup: 23
  - m_Indexes: 320100003301000031010000310100003301000030010000
    m_SmoothingGroup: 0
    m_Uv:
      m_UseWorldSpace: 0
      m_FlipU: 0
      m_FlipV: 0
      m_SwapUV: 0
      m_Fill: 1
      m_Scale: {x: 1, y: 1}
      m_Offset: {x: 0, y: 0}
      m_Rotation: 0
      m_Anchor: 9
    m_Material: {fileID: 2100000, guid: c22777d6e868e4f2fb421913386b154e, type: 2}
    m_SubmeshIndex: 0
    m_ManualUV: 0
    elementGroup: 0
    m_TextureGroup: 23
  - m_Indexes: 340100003601000037010000340100003501000036010000
    m_SmoothingGroup: 0
    m_Uv:
      m_UseWorldSpace: 0
      m_FlipU: 0
      m_FlipV: 0
      m_SwapUV: 0
      m_Fill: 1
      m_Scale: {x: 1, y: 1}
      m_Offset: {x: 0, y: 0}
      m_Rotation: 0
      m_Anchor: 9
    m_Material: {fileID: 2100000, guid: c22777d6e868e4f2fb421913386b154e, type: 2}
    m_SubmeshIndex: 0
    m_ManualUV: 0
    elementGroup: 0
    m_TextureGroup: 24
  - m_Indexes: 3b010000380100003a0100003a0100003801000039010000
    m_SmoothingGroup: 0
    m_Uv:
      m_UseWorldSpace: 0
      m_FlipU: 0
      m_FlipV: 0
      m_SwapUV: 0
      m_Fill: 1
      m_Scale: {x: 1, y: 1}
      m_Offset: {x: 0, y: 0}
      m_Rotation: 0
      m_Anchor: 9
    m_Material: {fileID: 2100000, guid: c22777d6e868e4f2fb421913386b154e, type: 2}
    m_SubmeshIndex: 1
    m_ManualUV: 0
    elementGroup: 0
    m_TextureGroup: 24
  - m_Indexes: 3d0100003e0100003f0100003d0100003f0100003c010000
    m_SmoothingGroup: 0
    m_Uv:
      m_UseWorldSpace: 0
      m_FlipU: 0
      m_FlipV: 0
      m_SwapUV: 0
      m_Fill: 1
      m_Scale: {x: 1, y: 1}
      m_Offset: {x: 0, y: 0}
      m_Rotation: 0
      m_Anchor: 9
    m_Material: {fileID: 2100000, guid: c22777d6e868e4f2fb421913386b154e, type: 2}
    m_SubmeshIndex: 0
    m_ManualUV: 0
    elementGroup: 0
    m_TextureGroup: 24
  m_SharedVertices:
  - m_Vertices: 000000007d00000089000000d4000000
  - m_Vertices: 01000000040000007a0000007c000000
  - m_Vertices: 02000000070000000b0000000f000000
  - m_Vertices: 030000000e000000830000008a000000
  - m_Vertices: 0500000079000000e00000003d010000
  - m_Vertices: 0600000008000000e3000000ea000000
  - m_Vertices: 0900000015000000e9000000ec000000
  - m_Vertices: 0a0000000c0000001100000014000000
  - m_Vertices: 0d000000100000008000000095000000
  - m_Vertices: 12000000170000001b0000001f000000
  - m_Vertices: 130000001e0000008f00000096000000
  - m_Vertices: 1600000018000000ef000000f6000000
  - m_Vertices: 1900000025000000f5000000f8000000
  - m_Vertices: 1a0000001c0000002100000024000000
  - m_Vertices: 1d000000200000008c000000a1000000
  - m_Vertices: 22000000270000002b0000002f000000
  - m_Vertices: 230000002e0000009b000000a2000000
  - m_Vertices: 2600000028000000fb00000002010000
  - m_Vertices: 29000000350000000101000004010000
  - m_Vertices: 2a0000002c0000003100000034000000
  - m_Vertices: 2d0000003000000098000000ad000000
  - m_Vertices: 32000000370000003b0000003f000000
  - m_Vertices: 330000003e000000a7000000ae000000
  - m_Vertices: 3600000038000000070100000e010000
  - m_Vertices: 39000000450000000d01000010010000
  - m_Vertices: 3a0000003c0000004100000044000000
  - m_Vertices: 3d00000040000000a4000000b9000000
  - m_Vertices: 42000000470000004b0000004f000000
  - m_Vertices: 430000004e000000b3000000ba000000
  - m_Vertices: 4600000048000000130100001a010000
  - m_Vertices: 4900000055000000190100001c010000
  - m_Vertices: 4a0000004c0000005100000054000000
  - m_Vertices: 4d00000050000000b0000000c5000000
  - m_Vertices: 52000000570000005b0000005f000000
  - m_Vertices: 530000005e000000bf000000c6000000
  - m_Vertices: 56000000580000001f01000026010000
  - m_Vertices: 59000000650000002501000028010000
  - m_Vertices: 5a0000005c0000006100000064000000
  - m_Vertices: 5d00000060000000bc000000d1000000
  - m_Vertices: 62000000670000006b0000006f000000
  - m_Vertices: 630000006e000000cb000000d2000000
  - m_Vertices: 66000000680000002b01000032010000
  - m_Vertices: 69000000750000003101000034010000
  - m_Vertices: 6a0000006c0000007100000074000000
  - m_Vertices: 6d00000070000000c8000000dd000000
  - m_Vertices: 72000000770000007b0000007f000000
  - m_Vertices: 730000007e000000d7000000de000000
  - m_Vertices: 7600000078000000370100003e010000
  - m_Vertices: 81000000840000009200000094000000
  - m_Vertices: 82000000870000008b000000
  - m_Vertices: 85000000910000009d000000a9000000b5000000c1000000cd000000d9000000
  - m_Vertices: 8600000088000000d5000000d8000000
  - m_Vertices: 8d000000900000009e000000a0000000
  - m_Vertices: 8e0000009300000097000000
  - m_Vertices: 990000009c000000aa000000ac000000
  - m_Vertices: 9a0000009f000000a3000000
  - m_Vertices: a5000000a8000000b6000000b8000000
  - m_Vertices: a6000000ab000000af000000
  - m_Vertices: b1000000b4000000c2000000c4000000
  - m_Vertices: b2000000b7000000bb000000
  - m_Vertices: bd000000c0000000ce000000d0000000
  - m_Vertices: be000000c3000000c7000000
  - m_Vertices: c9000000cc000000da000000dc000000
  - m_Vertices: ca000000cf000000d3000000
  - m_Vertices: d6000000db000000df000000
  - m_Vertices: e1000000e40000003a0100003c010000
  - m_Vertices: e2000000e7000000eb000000
  - m_Vertices: e5000000f1000000fd0000000901000015010000210100002d01000039010000
  - m_Vertices: e6000000e8000000ed000000f0000000
  - m_Vertices: ee000000f3000000f7000000
  - m_Vertices: f2000000f4000000f9000000fc000000
  - m_Vertices: fa000000ff00000003010000
  - m_Vertices: fe000000000100000501000008010000
  - m_Vertices: 060100000b0100000f010000
  - m_Vertices: 0a0100000c0100001101000014010000
  - m_Vertices: 12010000170100001b010000
  - m_Vertices: 16010000180100001d01000020010000
  - m_Vertices: 1e0100002301000027010000
  - m_Vertices: 2201000024010000290100002c010000
  - m_Vertices: 2a0100002f01000033010000
  - m_Vertices: 2e010000300100003501000038010000
  - m_Vertices: 360100003b0100003f010000
  m_SharedTextures: []
  m_Positions:
  - {x: 0, y: 0, z: 0}
  - {x: 0, y: 0.5, z: 0}
  - {x: -0.07322331, y: 0.5, z: 0.17677669}
  - {x: -0.07322331, y: 0, z: 0.17677669}
  - {x: 0, y: 0.5, z: 0}
  - {x: 0, y: 1, z: 0}
  - {x: -0.07322331, y: 1, z: 0.17677669}
  - {x: -0.07322331, y: 0.5, z: 0.17677669}
  - {x: -0.07322331, y: 1, z: 0.17677669}
  - {x: -0.14644662, y: 1, z: 0.35355338}
  - {x: -0.14644662, y: 0.5, z: 0.35355338}
  - {x: -0.07322331, y: 0.5, z: 0.17677669}
  - {x: -0.14644662, y: 0.5, z: 0.35355338}
  - {x: -0.14644662, y: 0, z: 0.35355338}
  - {x: -0.07322331, y: 0, z: 0.17677669}
  - {x: -0.07322331, y: 0.5, z: 0.17677669}
  - {x: -0.14644662, y: 0, z: 0.35355338}
  - {x: -0.14644662, y: 0.5, z: 0.35355338}
  - {x: -0.34489208, y: 0.49999994, z: 0.48521894}
  - {x: -0.34489208, y: -0.00000011038537, z: 0.492678}
  - {x: -0.14644662, y: 0.5, z: 0.35355338}
  - {x: -0.14644662, y: 1, z: 0.35355338}
  - {x: -0.34489208, y: 1, z: 0.4777599}
  - {x: -0.34489208, y: 0.49999994, z: 0.48521894}
  - {x: -0.34489208, y: 1, z: 0.4777599}
  - {x: -0.5, y: 1, z: 0.7994952}
  - {x: -0.5, y: 0.49999994, z: 0.8144133}
  - {x: -0.34489208, y: 0.49999994, z: 0.48521894}
  - {x: -0.5, y: 0.49999994, z: 0.8144133}
  - {x: -0.5, y: -0.00000011038537, z: 0.8293314}
  - {x: -0.34489208, y: -0.00000011038537, z: 0.492678}
  - {x: -0.34489208, y: 0.49999994, z: 0.48521894}
  - {x: -0.5, y: -0.00000011038537, z: 0.8293314}
  - {x: -0.5, y: 0.49999994, z: 0.8144133}
  - {x: -0.64432704, y: 0.49999994, z: 0.48626524}
  - {x: -0.64432704, y: -0.00000011038537, z: 0.4937243}
  - {x: -0.5, y: 0.49999994, z: 0.8144133}
  - {x: -0.5, y: 1, z: 0.7994952}
  - {x: -0.64432704, y: 1, z: 0.4788062}
  - {x: -0.64432704, y: 0.49999994, z: 0.48626524}
  - {x: -0.64432704, y: 1, z: 0.4788062}
  - {x: -0.8535534, y: 1, z: 0.35355338}
  - {x: -0.8535534, y: 0.5, z: 0.35355338}
  - {x: -0.64432704, y: 0.49999994, z: 0.48626524}
  - {x: -0.8535534, y: 0.5, z: 0.35355338}
  - {x: -0.8535534, y: 0, z: 0.35355338}
  - {x: -0.64432704, y: -0.00000011038537, z: 0.4937243}
  - {x: -0.64432704, y: 0.49999994, z: 0.48626524}
  - {x: -0.8535534, y: 0, z: 0.35355338}
  - {x: -0.8535534, y: 0.5, z: 0.35355338}
  - {x: -0.9267767, y: 0.5, z: 0.17677666}
  - {x: -0.9267767, y: 0, z: 0.17677668}
  - {x: -0.8535534, y: 0.5, z: 0.35355338}
  - {x: -0.8535534, y: 1, z: 0.35355338}
  - {x: -0.9267767, y: 1, z: 0.17677668}
  - {x: -0.9267767, y: 0.5, z: 0.17677666}
  - {x: -0.9267767, y: 1, z: 0.17677668}
  - {x: -1, y: 1, z: -0.00000004371139}
  - {x: -1, y: 0.5, z: -0.00000004371139}
  - {x: -0.9267767, y: 0.5, z: 0.17677666}
  - {x: -1, y: 0.5, z: -0.00000004371139}
  - {x: -1, y: 0, z: -0.00000004371139}
  - {x: -0.9267767, y: 0, z: 0.17677668}
  - {x: -0.9267767, y: 0.5, z: 0.17677666}
  - {x: -1, y: 0, z: -0.00000004371139}
  - {x: -1, y: 0.5, z: -0.00000004371139}
  - {x: -0.92677665, y: 0.5, z: -0.1767767}
  - {x: -0.9267767, y: 0, z: -0.17677669}
  - {x: -1, y: 0.5, z: -0.00000004371139}
  - {x: -1, y: 1, z: -0.00000004371139}
  - {x: -0.9267767, y: 1, z: -0.17677669}
  - {x: -0.92677665, y: 0.5, z: -0.1767767}
  - {x: -0.9267767, y: 1, z: -0.17677669}
  - {x: -0.8535534, y: 1, z: -0.35355335}
  - {x: -0.8535534, y: 0.5, z: -0.35355335}
  - {x: -0.92677665, y: 0.5, z: -0.1767767}
  - {x: -0.8535534, y: 0.5, z: -0.35355335}
  - {x: -0.8535534, y: 0, z: -0.35355335}
  - {x: -0.9267767, y: 0, z: -0.17677669}
  - {x: -0.92677665, y: 0.5, z: -0.1767767}
  - {x: -0.8535534, y: 0, z: -0.35355335}
  - {x: -0.8535534, y: 0.5, z: -0.35355335}
  - {x: -0.6767767, y: 0.5, z: -0.42677668}
  - {x: -0.6767767, y: 0, z: -0.42677668}
  - {x: -0.8535534, y: 0.5, z: -0.35355335}
  - {x: -0.8535534, y: 1, z: -0.35355335}
  - {x: -0.6767767, y: 1, z: -0.42677668}
  - {x: -0.6767767, y: 0.5, z: -0.42677668}
  - {x: -0.6767767, y: 1, z: -0.42677668}
  - {x: -0.5, y: 1, z: -0.5}
  - {x: -0.5, y: 0.5, z: -0.5}
  - {x: -0.6767767, y: 0.5, z: -0.42677668}
  - {x: -0.5, y: 0.5, z: -0.5}
  - {x: -0.5, y: 0, z: -0.5}
  - {x: -0.6767767, y: 0, z: -0.42677668}
  - {x: -0.6767767, y: 0.5, z: -0.42677668}
  - {x: -0.5, y: 0, z: -0.5}
  - {x: -0.5, y: 0.5, z: -0.5}
  - {x: -0.32322335, y: 0.5, z: -0.4267767}
  - {x: -0.32322335, y: 0, z: -0.4267767}
  - {x: -0.5, y: 0.5, z: -0.5}
  - {x: -0.5, y: 1, z: -0.5}
  - {x: -0.32322335, y: 1, z: -0.4267767}
  - {x: -0.32322335, y: 0.5, z: -0.4267767}
  - {x: -0.32322335, y: 1, z: -0.4267767}
  - {x: -0.14644668, y: 1, z: -0.35355344}
  - {x: -0.14644668, y: 0.5, z: -0.35355344}
  - {x: -0.32322335, y: 0.5, z: -0.4267767}
  - {x: -0.14644668, y: 0.5, z: -0.35355344}
  - {x: -0.14644668, y: 0, z: -0.35355344}
  - {x: -0.32322335, y: 0, z: -0.4267767}
  - {x: -0.32322335, y: 0.5, z: -0.4267767}
  - {x: -0.14644668, y: 0, z: -0.35355344}
  - {x: -0.14644668, y: 0.5, z: -0.35355344}
  - {x: -0.07322334, y: 0.5, z: -0.17677672}
  - {x: -0.07322334, y: 0, z: -0.17677672}
  - {x: -0.14644668, y: 0.5, z: -0.35355344}
  - {x: -0.14644668, y: 1, z: -0.35355344}
  - {x: -0.07322334, y: 1, z: -0.17677672}
  - {x: -0.07322334, y: 0.5, z: -0.17677672}
  - {x: -0.07322334, y: 1, z: -0.17677672}
  - {x: 0, y: 1, z: 0}
  - {x: 0, y: 0.5, z: 0}
  - {x: -0.07322334, y: 0.5, z: -0.17677672}
  - {x: 0, y: 0.5, z: 0}
  - {x: 0, y: 0, z: 0}
  - {x: -0.07322334, y: 0, z: -0.17677672}
  - {x: -0.07322334, y: 0.5, z: -0.17677672}
  - {x: -0.14644662, y: 0, z: 0.35355338}
  - {x: -0.3232233, y: 0, z: 0.17677669}
  - {x: -0.2154822, y: 0, z: 0.11785113}
  - {x: -0.07322331, y: 0, z: 0.17677669}
  - {x: -0.3232233, y: 0, z: 0.17677669}
  - {x: -0.5, y: 0, z: 0}
  - {x: -0.25, y: 0, z: 0}
  - {x: -0.2154822, y: 0, z: 0.11785113}
  - {x: -0.25, y: 0, z: 0}
  - {x: 0, y: 0, z: 0}
  - {x: -0.07322331, y: 0, z: 0.17677669}
  - {x: -0.2154822, y: 0, z: 0.11785113}
  - {x: -0.5, y: -0.00000011038537, z: 0.8293314}
  - {x: -0.5, y: -0.000000055192686, z: 0.4146657}
  - {x: -0.38214886, y: -0.000000036795125, z: 0.39429495}
  - {x: -0.34489208, y: -0.00000011038537, z: 0.492678}
  - {x: -0.5, y: -0.000000055192686, z: 0.4146657}
  - {x: -0.5, y: 0, z: 0}
  - {x: -0.3232233, y: 0, z: 0.17677669}
  - {x: -0.38214886, y: -0.000000036795125, z: 0.39429495}
  - {x: -0.3232233, y: 0, z: 0.17677669}
  - {x: -0.14644662, y: 0, z: 0.35355338}
  - {x: -0.34489208, y: -0.00000011038537, z: 0.492678}
  - {x: -0.38214886, y: -0.000000036795125, z: 0.39429495}
  - {x: -0.8535534, y: 0, z: 0.35355338}
  - {x: -0.6767767, y: 0, z: 0.17677669}
  - {x: -0.61785114, y: -0.000000036795125, z: 0.39429495}
  - {x: -0.64432704, y: -0.00000011038537, z: 0.4937243}
  - {x: -0.6767767, y: 0, z: 0.17677669}
  - {x: -0.5, y: 0, z: 0}
  - {x: -0.5, y: -0.000000055192686, z: 0.4146657}
  - {x: -0.61785114, y: -0.000000036795125, z: 0.39429495}
  - {x: -0.5, y: -0.000000055192686, z: 0.4146657}
  - {x: -0.5, y: -0.00000011038537, z: 0.8293314}
  - {x: -0.64432704, y: -0.00000011038537, z: 0.4937243}
  - {x: -0.61785114, y: -0.000000036795125, z: 0.39429495}
  - {x: -1, y: 0, z: -0.00000004371139}
  - {x: -0.75, y: 0, z: -0.000000021855694}
  - {x: -0.78451777, y: 0, z: 0.11785112}
  - {x: -0.9267767, y: 0, z: 0.17677668}
  - {x: -0.75, y: 0, z: -0.000000021855694}
  - {x: -0.5, y: 0, z: 0}
  - {x: -0.6767767, y: 0, z: 0.17677669}
  - {x: -0.78451777, y: 0, z: 0.11785112}
  - {x: -0.6767767, y: 0, z: 0.17677669}
  - {x: -0.8535534, y: 0, z: 0.35355338}
  - {x: -0.9267767, y: 0, z: 0.17677668}
  - {x: -0.78451777, y: 0, z: 0.11785112}
  - {x: -0.8535534, y: 0, z: -0.35355335}
  - {x: -0.6767767, y: 0, z: -0.17677668}
  - {x: -0.78451777, y: 0, z: -0.11785113}
  - {x: -0.9267767, y: 0, z: -0.17677669}
  - {x: -0.6767767, y: 0, z: -0.17677668}
  - {x: -0.5, y: 0, z: 0}
  - {x: -0.75, y: 0, z: -0.000000021855694}
  - {x: -0.78451777, y: 0, z: -0.11785113}
  - {x: -0.75, y: 0, z: -0.000000021855694}
  - {x: -1, y: 0, z: -0.00000004371139}
  - {x: -0.9267767, y: 0, z: -0.17677669}
  - {x: -0.78451777, y: 0, z: -0.11785113}
  - {x: -0.5, y: 0, z: -0.5}
  - {x: -0.5, y: 0, z: -0.25}
  - {x: -0.61785114, y: 0, z: -0.2845178}
  - {x: -0.6767767, y: 0, z: -0.42677668}
  - {x: -0.5, y: 0, z: -0.25}
  - {x: -0.5, y: 0, z: 0}
  - {x: -0.6767767, y: 0, z: -0.17677668}
  - {x: -0.61785114, y: 0, z: -0.2845178}
  - {x: -0.6767767, y: 0, z: -0.17677668}
  - {x: -0.8535534, y: 0, z: -0.35355335}
  - {x: -0.6767767, y: 0, z: -0.42677668}
  - {x: -0.61785114, y: 0, z: -0.2845178}
  - {x: -0.14644668, y: 0, z: -0.35355344}
  - {x: -0.32322335, y: 0, z: -0.17677672}
  - {x: -0.38214892, y: 0, z: -0.28451782}
  - {x: -0.32322335, y: 0, z: -0.4267767}
  - {x: -0.32322335, y: 0, z: -0.17677672}
  - {x: -0.5, y: 0, z: 0}
  - {x: -0.5, y: 0, z: -0.25}
  - {x: -0.38214892, y: 0, z: -0.28451782}
  - {x: -0.5, y: 0, z: -0.25}
  - {x: -0.5, y: 0, z: -0.5}
  - {x: -0.32322335, y: 0, z: -0.4267767}
  - {x: -0.38214892, y: 0, z: -0.28451782}
  - {x: 0, y: 0, z: 0}
  - {x: -0.25, y: 0, z: 0}
  - {x: -0.21548223, y: 0, z: -0.11785115}
  - {x: -0.07322334, y: 0, z: -0.17677672}
  - {x: -0.25, y: 0, z: 0}
  - {x: -0.5, y: 0, z: 0}
  - {x: -0.32322335, y: 0, z: -0.17677672}
  - {x: -0.21548223, y: 0, z: -0.11785115}
  - {x: -0.32322335, y: 0, z: -0.17677672}
  - {x: -0.14644668, y: 0, z: -0.35355344}
  - {x: -0.07322334, y: 0, z: -0.17677672}
  - {x: -0.21548223, y: 0, z: -0.11785115}
  - {x: 0, y: 1, z: 0}
  - {x: -0.123776495, y: 1, z: 0.0120945275}
  - {x: -0.16967395, y: 1, z: 0.13973635}
  - {x: -0.07322331, y: 1, z: 0.17677669}
  - {x: -0.123776495, y: 1, z: 0.0120945275}
  - {x: -0.5, y: 0.67214847, z: 0}
  - {x: -0.22906816, y: 1, z: 0.2927029}
  - {x: -0.16967395, y: 1, z: 0.13973635}
  - {x: -0.22906816, y: 1, z: 0.2927029}
  - {x: -0.14644662, y: 1, z: 0.35355338}
  - {x: -0.07322331, y: 1, z: 0.17677669}
  - {x: -0.16967395, y: 1, z: 0.13973635}
  - {x: -0.14644662, y: 1, z: 0.35355338}
  - {x: -0.22906816, y: 1, z: 0.2927029}
  - {x: -0.38214886, y: 1, z: 0.41617295}
  - {x: -0.34489208, y: 1, z: 0.4777599}
  - {x: -0.22906816, y: 1, z: 0.2927029}
  - {x: -0.5, y: 0.67214847, z: 0}
  - {x: -0.5, y: 1, z: 0.49194193}
  - {x: -0.38214886, y: 1, z: 0.41617295}
  - {x: -0.5, y: 1, z: 0.49194193}
  - {x: -0.5, y: 1, z: 0.7994952}
  - {x: -0.34489208, y: 1, z: 0.4777599}
  - {x: -0.38214886, y: 1, z: 0.41617295}
  - {x: -0.5, y: 1, z: 0.7994952}
  - {x: -0.5, y: 1, z: 0.49194193}
  - {x: -0.61785114, y: 1, z: 0.4175534}
  - {x: -0.64432704, y: 1, z: 0.4788062}
  - {x: -0.5, y: 1, z: 0.49194193}
  - {x: -0.5, y: 0.67214847, z: 0}
  - {x: -0.7860441, y: 1, z: 0.28510702}
  - {x: -0.61785114, y: 1, z: 0.4175534}
  - {x: -0.7860441, y: 1, z: 0.28510702}
  - {x: -0.8535534, y: 1, z: 0.35355338}
  - {x: -0.64432704, y: 1, z: 0.4788062}
  - {x: -0.61785114, y: 1, z: 0.4175534}
  - {x: -0.8535534, y: 1, z: 0.35355338}
  - {x: -0.7860441, y: 1, z: 0.28510702}
  - {x: -0.8631823, y: 1, z: 0.12901928}
  - {x: -0.9267767, y: 1, z: 0.17677668}
  - {x: -0.7860441, y: 1, z: 0.28510702}
  - {x: -0.5, y: 0.67214847, z: 0}
  - {x: -0.8995564, y: 1, z: 0.003438145}
  - {x: -0.8631823, y: 1, z: 0.12901928}
  - {x: -0.8995564, y: 1, z: 0.003438145}
  - {x: -1, y: 1, z: -0.00000004371139}
  - {x: -0.9267767, y: 1, z: 0.17677668}
  - {x: -0.8631823, y: 1, z: 0.12901928}
  - {x: -1, y: 1, z: -0.00000004371139}
  - {x: -0.8995564, y: 1, z: 0.003438145}
  - {x: -0.8490616, y: 1, z: -0.13678664}
  - {x: -0.9267767, y: 1, z: -0.17677669}
  - {x: -0.8995564, y: 1, z: 0.003438145}
  - {x: -0.5, y: 0.67214847, z: 0}
  - {x: -0.78487694, y: 1, z: -0.27299997}
  - {x: -0.8490616, y: 1, z: -0.13678664}
  - {x: -0.78487694, y: 1, z: -0.27299997}
  - {x: -0.8535534, y: 1, z: -0.35355335}
  - {x: -0.9267767, y: 1, z: -0.17677669}
  - {x: -0.8490616, y: 1, z: -0.13678664}
  - {x: -0.8535534, y: 1, z: -0.35355335}
  - {x: -0.78487694, y: 1, z: -0.27299997}
  - {x: -0.64383256, y: 1, z: -0.35005584}
  - {x: -0.6767767, y: 1, z: -0.42677668}
  - {x: -0.78487694, y: 1, z: -0.27299997}
  - {x: -0.5, y: 0.67214847, z: 0}
  - {x: -0.49692318, y: 1, z: -0.37018874}
  - {x: -0.64383256, y: 1, z: -0.35005584}
  - {x: -0.49692318, y: 1, z: -0.37018874}
  - {x: -0.5, y: 1, z: -0.5}
  - {x: -0.6767767, y: 1, z: -0.42677668}
  - {x: -0.64383256, y: 1, z: -0.35005584}
  - {x: -0.5, y: 1, z: -0.5}
  - {x: -0.49692318, y: 1, z: -0.37018874}
  - {x: -0.3645063, y: 1, z: -0.34077016}
  - {x: -0.32322335, y: 1, z: -0.4267767}
  - {x: -0.49692318, y: 1, z: -0.37018874}
  - {x: -0.5, y: 0.67214847, z: 0}
  - {x: -0.24402833, y: 1, z: -0.28236648}
  - {x: -0.3645063, y: 1, z: -0.34077016}
  - {x: -0.24402833, y: 1, z: -0.28236648}
  - {x: -0.14644668, y: 1, z: -0.35355344}
  - {x: -0.32322335, y: 1, z: -0.4267767}
  - {x: -0.3645063, y: 1, z: -0.34077016}
  - {x: -0.14644668, y: 1, z: -0.35355344}
  - {x: -0.24402833, y: 1, z: -0.28236648}
  - {x: -0.17737037, y: 1, z: -0.14596048}
  - {x: -0.07322334, y: 1, z: -0.17677672}
  - {x: -0.24402833, y: 1, z: -0.28236648}
  - {x: -0.5, y: 0.67214847, z: 0}
  - {x: -0.123776495, y: 1, z: 0.0120945275}
  - {x: -0.17737037, y: 1, z: -0.14596048}
  - {x: -0.123776495, y: 1, z: 0.0120945275}
  - {x: 0, y: 1, z: 0}
  - {x: -0.07322334, y: 1, z: -0.17677672}
  - {x: -0.17737037, y: 1, z: -0.14596048}
  m_Textures0:
  - {x: 0, y: 0}
  - {x: 0, y: 0.5}
  - {x: 0.19134173, y: 0.5}
  - {x: 0.19134173, y: 0}
  - {x: 0, y: 0.5}
  - {x: 0, y: 1}
  - {x: 0.19134173, y: 1}
  - {x: 0.19134173, y: 0.5}
  - {x: 0.19134173, y: 1}
  - {x: 0.38268346, y: 1}
  - {x: 0.38268346, y: 0.5}
  - {x: 0.19134173, y: 0.5}
  - {x: 0.38268346, y: 0.5}
  - {x: 0.38268346, y: 0}
  - {x: 0.19134173, y: 0}
  - {x: 0.19134173, y: 0.5}
  - {x: 0.37450624, y: -0.00066259055}
  - {x: 0.37450624, y: 0.49931967}
  - {x: 0.595207, y: 0.50007313}
  - {x: 0.6013641, y: 0.000055361317}
  - {x: 0.37450624, y: 0.49931967}
  - {x: 0.37450624, y: 0.99930197}
  - {x: 0.5890499, y: 1.000091}
  - {x: 0.595207, y: 0.50007313}
  - {x: 0.5890499, y: 1.000091}
  - {x: 0.942181, y: 0.99963975}
  - {x: 0.95449513, y: 0.49958652}
  - {x: 0.595207, y: 0.50007313}
  - {x: 0.95449513, y: 0.49958652}
  - {x: 0.9668093, y: -0.0004666978}
  - {x: 0.6013641, y: 0.000055361317}
  - {x: 0.595207, y: 0.50007313}
  - {x: 0.4069604, y: -0.0073425644}
  - {x: 0.39460215, y: 0.49270988}
  - {x: 0.041920595, y: 0.49324667}
  - {x: 0.04809972, y: -0.0067708576}
  - {x: 0.39460215, y: 0.49270988}
  - {x: 0.3822439, y: 0.9927623}
  - {x: 0.03574147, y: 0.9932642}
  - {x: 0.041920595, y: 0.49324667}
  - {x: 0.03574147, y: 0.9932642}
  - {x: -0.18521212, y: 0.9924022}
  - {x: -0.18521212, y: 0.4924196}
  - {x: 0.041920595, y: 0.49324667}
  - {x: -0.18521212, y: 0.4924196}
  - {x: -0.18521212, y: -0.007562962}
  - {x: 0.04809972, y: -0.0067708576}
  - {x: 0.041920595, y: 0.49324667}
  - {x: 0.000000052573398, y: 0}
  - {x: 0.000000052573398, y: 0.5}
  - {x: -0.19134168, y: 0.5}
  - {x: -0.19134167, y: 0}
  - {x: 0.000000052573398, y: 0.5}
  - {x: 0.000000052573398, y: 1}
  - {x: -0.19134167, y: 1}
  - {x: -0.19134168, y: 0.5}
  - {x: -0.19134167, y: 1}
  - {x: -0.3826834, y: 1}
  - {x: -0.3826834, y: 0.5}
  - {x: -0.19134168, y: 0.5}
  - {x: -0.3826834, y: 0.5}
  - {x: -0.3826834, y: 0}
  - {x: -0.19134167, y: 0}
  - {x: -0.19134168, y: 0.5}
  - {x: 0.3826834, y: 0}
  - {x: 0.3826834, y: 0.5}
  - {x: 0.19134167, y: 0.5}
  - {x: 0.19134171, y: 0}
  - {x: 0.3826834, y: 0.5}
  - {x: 0.3826834, y: 1}
  - {x: 0.19134171, y: 1}
  - {x: 0.19134167, y: 0.5}
  - {x: 0.19134171, y: 1}
  - {x: 0.000000025836108, y: 1}
  - {x: 0.000000025836108, y: 0.5}
  - {x: 0.19134167, y: 0.5}
  - {x: 0.000000025836108, y: 0.5}
  - {x: 0.000000025836108, y: 0}
  - {x: 0.19134171, y: 0}
  - {x: 0.19134167, y: 0.5}
  - {x: 0.65328145, y: 0}
  - {x: 0.65328145, y: 0.5}
  - {x: 0.46193972, y: 0.5}
  - {x: 0.46193972, y: 0}
  - {x: 0.65328145, y: 0.5}
  - {x: 0.65328145, y: 1}
  - {x: 0.46193972, y: 1}
  - {x: 0.46193972, y: 0.5}
  - {x: 0.46193972, y: 1}
  - {x: 0.270598, y: 1}
  - {x: 0.270598, y: 0.5}
  - {x: 0.46193972, y: 0.5}
  - {x: 0.270598, y: 0.5}
  - {x: 0.270598, y: 0}
  - {x: 0.46193972, y: 0}
  - {x: 0.46193972, y: 0.5}
  - {x: 0.65328145, y: 0}
  - {x: 0.65328145, y: 0.5}
  - {x: 0.46193978, y: 0.5}
  - {x: 0.46193978, y: 0}
  - {x: 0.65328145, y: 0.5}
  - {x: 0.65328145, y: 1}
  - {x: 0.46193978, y: 1}
  - {x: 0.46193978, y: 0.5}
  - {x: 0.46193978, y: 1}
  - {x: 0.2705981, y: 1}
  - {x: 0.2705981, y: 0.5}
  - {x: 0.46193978, y: 0.5}
  - {x: 0.2705981, y: 0.5}
  - {x: 0.2705981, y: 0}
  - {x: 0.46193978, y: 0}
  - {x: 0.46193978, y: 0.5}
  - {x: -0.38268352, y: 0}
  - {x: -0.38268352, y: 0.5}
  - {x: -0.19134176, y: 0.5}
  - {x: -0.19134176, y: 0}
  - {x: -0.38268352, y: 0.5}
  - {x: -0.38268352, y: 1}
  - {x: -0.19134176, y: 1}
  - {x: -0.19134176, y: 0.5}
  - {x: -0.19134176, y: 1}
  - {x: 0, y: 1}
  - {x: 0, y: 0.5}
  - {x: -0.19134176, y: 0.5}
  - {x: 0, y: 0.5}
  - {x: 0, y: 0}
  - {x: -0.19134176, y: 0}
  - {x: -0.19134176, y: 0.5}
  - {x: -0.14644662, y: 0.35355338}
  - {x: -0.3232233, y: 0.17677669}
  - {x: -0.2154822, y: 0.11785113}
  - {x: -0.07322331, y: 0.17677669}
  - {x: -0.3232233, y: 0.17677669}
  - {x: -0.5, y: 0}
  - {x: -0.25, y: 0}
  - {x: -0.2154822, y: 0.11785113}
  - {x: -0.25, y: 0}
  - {x: 0, y: 0}
  - {x: -0.07322331, y: 0.17677669}
  - {x: -0.2154822, y: 0.11785113}
  - {x: -0.5, y: 0.8293314}
  - {x: -0.5, y: 0.4146657}
  - {x: -0.38214886, y: 0.39429495}
  - {x: -0.34489208, y: 0.492678}
  - {x: -0.5, y: 0.4146657}
  - {x: -0.5, y: -6.5590157e-15}
  - {x: -0.3232233, y: 0.17677669}
  - {x: -0.38214886, y: 0.39429495}
  - {x: -0.3232233, y: 0.17677669}
  - {x: -0.14644662, y: 0.35355338}
  - {x: -0.34489208, y: 0.492678}
  - {x: -0.38214886, y: 0.39429495}
  - {x: -0.8535534, y: 0.35355338}
  - {x: -0.6767767, y: 0.17677669}
  - {x: -0.61785114, y: 0.39429495}
  - {x: -0.64432704, y: 0.4937243}
  - {x: -0.6767767, y: 0.17677669}
  - {x: -0.5, y: 7.329244e-15}
  - {x: -0.5, y: 0.4146657}
  - {x: -0.61785114, y: 0.39429495}
  - {x: -0.5, y: 0.4146657}
  - {x: -0.5, y: 0.8293314}
  - {x: -0.64432704, y: 0.4937243}
  - {x: -0.61785114, y: 0.39429495}
  - {x: -1, y: -0.00000004371139}
  - {x: -0.75, y: -0.000000021855694}
  - {x: -0.78451777, y: 0.11785112}
  - {x: -0.9267767, y: 0.17677668}
  - {x: -0.75, y: -0.000000021855694}
  - {x: -0.5, y: 0}
  - {x: -0.6767767, y: 0.17677669}
  - {x: -0.78451777, y: 0.11785112}
  - {x: -0.6767767, y: 0.17677669}
  - {x: -0.8535534, y: 0.35355338}
  - {x: -0.9267767, y: 0.17677668}
  - {x: -0.78451777, y: 0.11785112}
  - {x: -0.8535534, y: -0.35355335}
  - {x: -0.6767767, y: -0.17677668}
  - {x: -0.78451777, y: -0.11785113}
  - {x: -0.9267767, y: -0.17677669}
  - {x: -0.6767767, y: -0.17677668}
  - {x: -0.5, y: 0}
  - {x: -0.75, y: -0.000000021855694}
  - {x: -0.78451777, y: -0.11785113}
  - {x: -0.75, y: -0.000000021855694}
  - {x: -1, y: -0.00000004371139}
  - {x: -0.9267767, y: -0.17677669}
  - {x: -0.78451777, y: -0.11785113}
  - {x: -0.5, y: -0.5}
  - {x: -0.5, y: -0.25}
  - {x: -0.61785114, y: -0.2845178}
  - {x: -0.6767767, y: -0.42677668}
  - {x: -0.5, y: -0.25}
  - {x: -0.5, y: 0}
  - {x: -0.6767767, y: -0.17677668}
  - {x: -0.61785114, y: -0.2845178}
  - {x: -0.6767767, y: -0.17677668}
  - {x: -0.8535534, y: -0.35355335}
  - {x: -0.6767767, y: -0.42677668}
  - {x: -0.61785114, y: -0.2845178}
  - {x: -0.14644668, y: -0.35355344}
  - {x: -0.32322335, y: -0.17677672}
  - {x: -0.38214892, y: -0.28451782}
  - {x: -0.32322335, y: -0.4267767}
  - {x: -0.32322335, y: -0.17677672}
  - {x: -0.5, y: 0}
  - {x: -0.5, y: -0.25}
  - {x: -0.38214892, y: -0.28451782}
  - {x: -0.5, y: -0.25}
  - {x: -0.5, y: -0.5}
  - {x: -0.32322335, y: -0.4267767}
  - {x: -0.38214892, y: -0.28451782}
  - {x: 0, y: 0}
  - {x: -0.25, y: 0}
  - {x: -0.21548223, y: -0.11785115}
  - {x: -0.07322334, y: -0.17677672}
  - {x: -0.25, y: 0}
  - {x: -0.5, y: 0}
  - {x: -0.32322335, y: -0.17677672}
  - {x: -0.21548223, y: -0.11785115}
  - {x: -0.32322335, y: -0.17677672}
  - {x: -0.14644668, y: -0.35355344}
  - {x: -0.07322334, y: -0.17677672}
  - {x: -0.21548223, y: -0.11785115}
  - {x: 0.5397087, y: 0.18476692}
  - {x: 0.4355072, y: 0.21122831}
  - {x: 0.39686835, y: 0.34119466}
  - {x: 0.4780655, y: 0.36590695}
  - {x: 0.4355072, y: 0.21122831}
  - {x: -0.058161557, y: 0.18341756}
  - {x: 0.34686723, y: 0.49746698}
  - {x: 0.39686835, y: 0.34119466}
  - {x: 0.34686723, y: 0.49746698}
  - {x: 0.41642234, y: 0.54704696}
  - {x: 0.4780655, y: 0.36590695}
  - {x: 0.39686835, y: 0.34119466}
  - {x: 0.26370883, y: 0.687952}
  - {x: 0.18791494, y: 0.6434858}
  - {x: 0.047484484, y: 0.7807176}
  - {x: 0.08166244, y: 0.8325174}
  - {x: 0.18791494, y: 0.6434858}
  - {x: -0.19113012, y: 0.30031553}
  - {x: -0.0606277, y: 0.8684362}
  - {x: 0.047484484, y: 0.7807176}
  - {x: -0.0606277, y: 0.8684362}
  - {x: -0.0606277, y: 1.1543828}
  - {x: 0.08166244, y: 0.8325174}
  - {x: 0.047484484, y: 0.7807176}
  - {x: -0.85723746, y: 1.0085614}
  - {x: -0.85723746, y: 0.7229093}
  - {x: -0.9653168, y: 0.6364043}
  - {x: -0.9895974, y: 0.68938315}
  - {x: -0.85723746, y: 0.7229093}
  - {x: -0.7265244, y: 0.15456907}
  - {x: -1.1195638, y: 0.4885373}
  - {x: -0.9653168, y: 0.6364043}
  - {x: -1.1195638, y: 0.4885373}
  - {x: -1.1814754, y: 0.54213434}
  - {x: -0.9895974, y: 0.68938315}
  - {x: -0.9653168, y: 0.6364043}
  - {x: -1.2646438, y: 0.42282173}
  - {x: -1.2084459, y: 0.36406475}
  - {x: -1.2726593, y: 0.20243026}
  - {x: -1.3255981, y: 0.24145442}
  - {x: -1.2084459, y: 0.36406475}
  - {x: -0.78866494, y: 0.060979813}
  - {x: -1.3029387, y: 0.075459234}
  - {x: -1.2726593, y: 0.20243026}
  - {x: -1.3029387, y: 0.075459234}
  - {x: -1.3865526, y: 0.06008709}
  - {x: -1.3255981, y: 0.24145442}
  - {x: -1.2726593, y: 0.20243026}
  - {x: -1.3853586, y: -0.06138544}
  - {x: -1.3015094, y: -0.06997222}
  - {x: -1.2593569, y: -0.21289182}
  - {x: -1.3242326, y: -0.24269688}
  - {x: -1.3015094, y: -0.06997222}
  - {x: -0.7874589, y: -0.061730385}
  - {x: -1.2057761, y: -0.3535225}
  - {x: -1.2593569, y: -0.21289182}
  - {x: -1.2057761, y: -0.3535225}
  - {x: -1.2631065, y: -0.42400834}
  - {x: -1.3242326, y: -0.24269688}
  - {x: -1.2593569, y: -0.21289182}
  - {x: -1.068924, y: -0.7074843}
  - {x: -1.0022615, y: -0.6481686}
  - {x: -0.8653535, y: -0.7314303}
  - {x: -0.89733154, y: -0.7920886}
  - {x: -1.0022615, y: -0.6481686}
  - {x: -0.64692277, y: -0.2840132}
  - {x: -0.7227525, y: -0.76730335}
  - {x: -0.8653535, y: -0.7314303}
  - {x: -0.7227525, y: -0.76730335}
  - {x: -0.7257391, y: -0.8766929}
  - {x: -0.89733154, y: -0.7920886}
  - {x: -0.8653535, y: -0.7314303}
  - {x: -0.25334066, y: -1.004815}
  - {x: -0.25034845, y: -0.8947391}
  - {x: -0.12157322, y: -0.85338795}
  - {x: -0.08142561, y: -0.92092335}
  - {x: -0.25034845, y: -0.8947391}
  - {x: -0.3297001, y: -0.41181272}
  - {x: -0.004408557, y: -0.7890309}
  - {x: -0.12157322, y: -0.85338795}
  - {x: -0.004408557, y: -0.7890309}
  - {x: 0.09048946, y: -0.8370317}
  - {x: -0.08142561, y: -0.92092335}
  - {x: -0.12157322, y: -0.85338795}
  - {x: 0.40596032, y: -0.54891527}
  - {x: 0.3232195, y: -0.4908856}
  - {x: 0.3797397, y: -0.35004508}
  - {x: 0.46804738, y: -0.36793008}
  - {x: 0.3232195, y: -0.4908856}
  - {x: -0.06762776, y: -0.1840958}
  - {x: 0.42518267, y: -0.18961528}
  - {x: 0.3797397, y: -0.35004508}
  - {x: 0.42518267, y: -0.18961528}
  - {x: 0.53013444, y: -0.18694493}
  - {x: 0.46804738, y: -0.36793008}
  - {x: 0.3797397, y: -0.35004508}
  m_Textures2: []
  m_Textures3: []
  m_Tangents:
  - {x: 0.000000032257805, y: 0, z: 1, w: -1}
  - {x: 0.000000032257805, y: 0, z: 1, w: -1}
  - {x: -0.3826835, y: 0, z: 0.9238795, w: -1}
  - {x: -0.3826835, y: 0, z: 0.9238795, w: -1}
  - {x: 0.000000032257805, y: 0, z: 1, w: -1}
  - {x: 0.000000032257805, y: 0, z: 1, w: -1}
  - {x: -0.3826835, y: 0, z: 0.9238795, w: -1}
  - {x: -0.3826835, y: 0, z: 0.9238795, w: -1}
  - {x: -0.3826835, y: 0, z: 0.9238795, w: -1}
  - {x: -0.64584196, y: 0, z: 0.7634711, w: -1}
  - {x: -0.63819724, y: -0.0005020647, z: 0.7698727, w: -1}
  - {x: -0.3826835, y: 0, z: 0.9238795, w: -1}
  - {x: -0.63819724, y: -0.0005020647, z: 0.7698727, w: -1}
  - {x: -0.6306701, y: -0.00094993686, z: 0.77605045, w: -1}
  - {x: -0.3826835, y: 0, z: 0.9238795, w: -1}
  - {x: -0.3826835, y: 0, z: 0.9238795, w: -1}
  - {x: -0.6306655, y: -0.0022471757, z: 0.7760515, w: -1}
  - {x: -0.6381919, y: -0.0028143846, z: 0.7698722, w: -1}
  - {x: -0.65225095, y: -0.0007769986, z: 0.75800276, w: -1}
  - {x: -0.6424487, y: -0.00006816149, z: 0.76632863, w: -1}
  - {x: -0.63819146, y: -0.002913231, z: 0.76987207, w: -1}
  - {x: -0.64583784, y: -0.003538279, z: 0.7634664, w: -1}
  - {x: -0.6621797, y: -0.0015374393, z: 0.74934345, w: -1}
  - {x: -0.652251, y: -0.00076921406, z: 0.7580027, w: -1}
  - {x: -0.6621854, y: -0.00054454047, z: 0.7493399, w: -1}
  - {x: -0.99890345, y: -0.04523951, z: -0.012056592, w: -1}
  - {x: -0.99847806, y: -0.053933658, z: -0.011519621, w: -1}
  - {x: -0.65224856, y: -0.001086843, z: 0.7580043, w: -1}
  - {x: -0.998449, y: -0.054471686, z: -0.011505228, w: -1}
  - {x: -0.99793196, y: -0.06334882, z: -0.010896808, w: -1}
  - {x: -0.6424351, y: -0.0015777661, z: 0.7663385, w: -1}
  - {x: -0.6522486, y: -0.0010896613, z: 0.7580043, w: -1}
  - {x: 0.9979081, y: -0.06296324, z: 0.01466537, w: 1}
  - {x: 0.9984341, y: -0.054072365, z: 0.014336621, w: 1}
  - {x: 0.65021497, y: -0.001107349, z: 0.7597494, w: 1}
  - {x: 0.64066476, y: -0.001655704, z: 0.7678189, w: 1}
  - {x: 0.99846196, y: -0.053559303, z: 0.014323732, w: 1}
  - {x: 0.99889463, y: -0.04485194, z: 0.014065779, w: 1}
  - {x: 0.65987897, y: -0.000500889, z: 0.7513718, w: 1}
  - {x: 0.650215, y: -0.0011048742, z: 0.7597494, w: 1}
  - {x: 0.6598727, y: -0.0016013695, z: 0.7513757, w: 1}
  - {x: 0.6533716, y: -0.0037232686, z: 0.7570282, w: 1}
  - {x: 0.6459947, y: -0.003075858, z: 0.76333576, w: 1}
  - {x: 0.6502174, y: -0.0007801865, z: 0.75974786, w: 1}
  - {x: 0.645995, y: -0.0029807973, z: 0.7633358, w: 1}
  - {x: 0.638723, y: -0.002390447, z: 0.769433, w: 1}
  - {x: 0.6406795, y: -0.000026575031, z: 0.7678084, w: 1}
  - {x: 0.65021735, y: -0.0007874408, z: 0.75974786, w: 1}
  - {x: 0.63872796, y: -0.0010038225, z: 0.76943195, w: 1}
  - {x: 0.6460009, y: -0.0005289215, z: 0.7633364, w: 1}
  - {x: 0.38268334, y: 0, z: 0.92387956, w: 1}
  - {x: 0.38268334, y: 0, z: 0.92387956, w: 1}
  - {x: 0.6460009, y: -0.0005289215, z: 0.7633364, w: 1}
  - {x: 0.65337616, y: 0, z: 0.75703347, w: 1}
  - {x: 0.38268334, y: 0, z: 0.92387956, w: 1}
  - {x: 0.38268334, y: 0, z: 0.92387956, w: 1}
  - {x: 0.38268334, y: 0, z: 0.9238796, w: 1}
  - {x: -0.0000000967734, y: -0.0000000012783171, z: 1, w: 1}
  - {x: -0.0000001290312, y: 0, z: 1, w: 1}
  - {x: 0.38268334, y: 0, z: 0.9238796, w: 1}
  - {x: -0.0000001290312, y: 0, z: 1, w: 1}
  - {x: -0.0000000967734, y: 0.0000000012783171, z: 1, w: 1}
  - {x: 0.38268334, y: 0, z: 0.9238796, w: 1}
  - {x: 0.38268334, y: 0, z: 0.9238796, w: 1}
  - {x: -0.00000006451561, y: -0.000000001278317, z: 1, w: 1}
  - {x: -0.00000012903122, y: 0, z: 1, w: 1}
  - {x: -0.38268355, y: 0, z: 0.9238795, w: 1}
  - {x: -0.38268355, y: -4.413583e-15, z: 0.9238795, w: 1}
  - {x: -0.00000012903122, y: 0, z: 1, w: 1}
  - {x: -0.00000006451561, y: 0.000000001278317, z: 1, w: 1}
  - {x: -0.38268355, y: 4.413583e-15, z: 0.9238795, w: 1}
  - {x: -0.38268355, y: 0, z: 0.9238795, w: 1}
  - {x: -0.3826835, y: -4.4135825e-15, z: 0.9238795, w: 1}
  - {x: -0.7071067, y: -0.000000011066212, z: 0.7071068, w: 1}
  - {x: -0.7071066, y: 0, z: 0.7071069, w: 1}
  - {x: -0.38268352, y: 0, z: 0.92387956, w: 1}
  - {x: -0.7071066, y: 0, z: 0.7071069, w: 1}
  - {x: -0.7071067, y: 0.000000011066212, z: 0.7071068, w: 1}
  - {x: -0.3826835, y: 4.4135825e-15, z: 0.9238795, w: 1}
  - {x: -0.38268352, y: 0, z: 0.92387956, w: 1}
  - {x: -0.7071067, y: -0.00000001106621, z: 0.7071068, w: 1}
  - {x: -0.7071066, y: 0, z: 0.7071069, w: 1}
  - {x: -0.92387956, y: 0, z: 0.38268352, w: 1}
  - {x: -0.92387956, y: 0, z: 0.38268352, w: 1}
  - {x: -0.7071066, y: 0, z: 0.7071069, w: 1}
  - {x: -0.7071067, y: 0.00000001106621, z: 0.7071068, w: 1}
  - {x: -0.92387956, y: 0, z: 0.38268352, w: 1}
  - {x: -0.92387956, y: 0, z: 0.38268352, w: 1}
  - {x: -0.92387956, y: 0, z: 0.38268352, w: 1}
  - {x: -1, y: 0, z: 0, w: 1}
  - {x: -1, y: 0, z: 0, w: 1}
  - {x: -0.92387956, y: 0, z: 0.38268352, w: 1}
  - {x: -1, y: 0, z: 0, w: 1}
  - {x: -1, y: 0, z: 0, w: 1}
  - {x: -0.92387956, y: 0, z: 0.38268352, w: 1}
  - {x: -0.92387956, y: 0, z: 0.38268352, w: 1}
  - {x: -1, y: 0, z: 0, w: 1}
  - {x: -1, y: 0, z: 0, w: 1}
  - {x: -0.92387956, y: 0, z: -0.38268337, w: 1}
  - {x: -0.92387956, y: 0, z: -0.38268337, w: 1}
  - {x: -1, y: 0, z: 0, w: 1}
  - {x: -1, y: 0, z: 0, w: 1}
  - {x: -0.92387956, y: 0, z: -0.38268337, w: 1}
  - {x: -0.92387956, y: 0, z: -0.38268337, w: 1}
  - {x: -0.92387956, y: 0, z: -0.3826834, w: 1}
  - {x: -0.7071068, y: 0, z: -0.7071067, w: 1}
  - {x: -0.7071068, y: 0, z: -0.7071067, w: 1}
  - {x: -0.92387956, y: 0, z: -0.3826834, w: 1}
  - {x: -0.7071068, y: 0, z: -0.7071067, w: 1}
  - {x: -0.7071068, y: 0, z: -0.7071067, w: 1}
  - {x: -0.92387956, y: 0, z: -0.3826834, w: 1}
  - {x: -0.92387956, y: 0, z: -0.3826834, w: 1}
  - {x: 0.70710677, y: 0, z: 0.70710677, w: -1}
  - {x: 0.70710677, y: 0, z: 0.70710677, w: -1}
  - {x: 0.38268355, y: 0, z: 0.9238795, w: -1}
  - {x: 0.38268355, y: 0, z: 0.9238795, w: -1}
  - {x: 0.70710677, y: 0, z: 0.70710677, w: -1}
  - {x: 0.70710677, y: 0, z: 0.70710677, w: -1}
  - {x: 0.38268355, y: 0, z: 0.9238795, w: -1}
  - {x: 0.38268355, y: 0, z: 0.9238795, w: -1}
  - {x: 0.38268355, y: 0, z: 0.9238795, w: -1}
  - {x: 0.000000032257805, y: 0, z: 1, w: -1}
  - {x: 0.000000032257805, y: 0, z: 1, w: -1}
  - {x: 0.38268355, y: 0, z: 0.9238795, w: -1}
  - {x: 0.000000032257805, y: 0, z: 1, w: -1}
  - {x: 0.000000032257805, y: 0, z: 1, w: -1}
  - {x: 0.38268355, y: 0, z: 0.9238795, w: -1}
  - {x: 0.38268355, y: 0, z: 0.9238795, w: -1}
  - {x: 1, y: 0, z: 0, w: 1}
  - {x: 1, y: 0, z: 0, w: 1}
  - {x: 1, y: 0, z: 0, w: 1}
  - {x: 1, y: 0, z: 0, w: 1}
  - {x: 1, y: 0, z: 0, w: 1}
  - {x: 1, y: 0, z: 0, w: 1}
  - {x: 1, y: 0, z: 0, w: 1}
  - {x: 1, y: 0, z: 0, w: 1}
  - {x: 1, y: 0, z: 0, w: 1}
  - {x: 1, y: 0, z: 0, w: 1}
  - {x: 1, y: 0, z: 0, w: 1}
  - {x: 1, y: 0, z: 0, w: 1}
  - {x: 1, y: -0.00000028888996, z: 3.782976e-21, w: 1}
  - {x: 1, y: -0.00000013186073, z: 6.328307e-21, w: 1}
  - {x: 1, y: 0.000000025168495, z: 1.3456407e-21, w: 1}
  - {x: 1, y: -0.00000013186073, z: 6.328307e-21, w: 1}
  - {x: 1, y: 0.00000013310164, z: 0, w: 1}
  - {x: 1, y: 0.00000013310162, z: 0, w: 1}
  - {x: 1, y: 0.00000013310164, z: 0, w: 1}
  - {x: 1, y: 0.00000013310165, z: 0, w: 1}
  - {x: 1, y: 0.00000013310165, z: 0, w: 1}
  - {x: 1, y: 0.00000007913501, z: 0, w: 1}
  - {x: 1, y: 0.000000025168374, z: 0, w: 1}
  - {x: 1, y: 0.00000007913501, z: 0, w: 1}
  - {x: 1, y: -0.0000000800191, z: 0, w: 1}
  - {x: 1, y: -0.00000013310162, z: 0, w: 1}
  - {x: 1, y: -0.0000000800191, z: 0, w: 1}
  - {x: 1, y: -0.000000026936576, z: 2.6549382e-21, w: 1}
  - {x: 1, y: -0.00000013310164, z: 0, w: 1}
  - {x: 1, y: -0.00000013310162, z: 0, w: 1}
  - {x: 1, y: -0.00000013310164, z: 0, w: 1}
  - {x: 1, y: -0.00000013310165, z: 0, w: 1}
  - {x: 1, y: 0.00000014128386, z: 0, w: 1}
  - {x: 1, y: 0.00000030950443, z: 0, w: 1}
  - {x: 1, y: 0.00000014128386, z: 0, w: 1}
  - {x: 1, y: -0.0000000269367, z: 1.3274693e-21, w: 1}
  - {x: 1, y: 0, z: 0, w: 1}
  - {x: 1, y: 0, z: 0, w: 1}
  - {x: 1, y: 0, z: 0, w: 1}
  - {x: 1, y: 0, z: 0, w: 1}
  - {x: 1, y: 0, z: 0, w: 1}
  - {x: 1, y: 0, z: 0, w: 1}
  - {x: 1, y: 0, z: 0, w: 1}
  - {x: 1, y: 0, z: 0, w: 1}
  - {x: 1, y: 0, z: 0, w: 1}
  - {x: 1, y: 0, z: 0, w: 1}
  - {x: 1, y: 0, z: 0, w: 1}
  - {x: 1, y: 0, z: 0, w: 1}
  - {x: 1, y: 0, z: 0, w: 1}
  - {x: 1, y: 0, z: 0, w: 1}
  - {x: 1, y: 0, z: 0, w: 1}
  - {x: 1, y: 0, z: 0, w: 1}
  - {x: 1, y: 0, z: 0, w: 1}
  - {x: 1, y: 0, z: 0, w: 1}
  - {x: 1, y: 0, z: 0, w: 1}
  - {x: 1, y: 0, z: 0, w: 1}
  - {x: 1, y: 0, z: 0, w: 1}
  - {x: 1, y: 0, z: 0, w: 1}
  - {x: 1, y: 0, z: 0, w: 1}
  - {x: 1, y: 0, z: 0, w: 1}
  - {x: 1, y: 0, z: 0, w: 1}
  - {x: 1, y: 0, z: 0, w: 1}
  - {x: 1, y: 0, z: 0, w: 1}
  - {x: 1, y: 0, z: 0, w: 1}
  - {x: 1, y: 0, z: 0, w: 1}
  - {x: 1, y: 0, z: 0, w: 1}
  - {x: 1, y: 0, z: 0, w: 1}
  - {x: 1, y: 0, z: 0, w: 1}
  - {x: 1, y: 0, z: 0, w: 1}
  - {x: 1, y: 0, z: 0, w: 1}
  - {x: 1, y: 0, z: 0, w: 1}
  - {x: 1, y: 0, z: 0, w: 1}
  - {x: 1, y: 0, z: 0, w: 1}
  - {x: 1, y: 0, z: 0, w: 1}
  - {x: 1, y: 0, z: 0, w: 1}
  - {x: 1, y: 0, z: 0, w: 1}
  - {x: 1, y: 0, z: 0, w: 1}
  - {x: 1, y: 0, z: 0, w: 1}
  - {x: 1, y: 0, z: 0, w: 1}
  - {x: 1, y: 0, z: 0, w: 1}
  - {x: 1, y: 0, z: 0, w: 1}
  - {x: 1, y: 0, z: 0, w: 1}
  - {x: 1, y: 0, z: 0, w: 1}
  - {x: 1, y: 0, z: 0, w: 1}
  - {x: 1, y: 0, z: 0, w: 1}
  - {x: 1, y: 0, z: 0, w: 1}
  - {x: 1, y: 0, z: 0, w: 1}
  - {x: 1, y: 0, z: 0, w: 1}
  - {x: 1, y: 0, z: 0, w: 1}
  - {x: 1, y: 0, z: 0, w: 1}
  - {x: 1, y: 0, z: 0, w: 1}
  - {x: 1, y: 0, z: 0, w: 1}
  - {x: 1, y: 0, z: 0, w: 1}
  - {x: 1, y: 0, z: 0, w: 1}
  - {x: 1, y: 0, z: 0, w: 1}
  - {x: 1, y: 0, z: 0, w: 1}
  - {x: 0.9927099, y: 0, z: 0.120528705, w: -1}
  - {x: 0.9927098, y: 0, z: 0.1205287, w: -1}
  - {x: 0.9927099, y: 0, z: 0.120528705, w: -1}
  - {x: 0.9927099, y: 0, z: 0.12052872, w: -1}
  - {x: 0.93589133, y: 0.34861392, z: 0.05075253, w: -1}
  - {x: 0.7622149, y: 0.64663225, z: -0.029918687, w: -1}
  - {x: 0.93589133, y: 0.34861392, z: 0.05075253, w: -1}
  - {x: 0.9927105, y: 0, z: 0.12052319, w: -1}
  - {x: 0.9927098, y: 0, z: 0.12052877, w: -1}
  - {x: 0.9927098, y: 0, z: 0.12052872, w: -1}
  - {x: 0.9927099, y: 0, z: 0.12052868, w: -1}
  - {x: 0.9927098, y: 0, z: 0.12052872, w: -1}
  - {x: 0.987802, y: 0, z: 0.15571514, w: -1}
  - {x: 0.987802, y: 0, z: 0.15571523, w: -1}
  - {x: 0.987802, y: 0, z: 0.15571514, w: -1}
  - {x: 0.987802, y: 0, z: 0.15571506, w: -1}
  - {x: 0.9709987, y: 0.22798398, z: 0.07200518, w: -1}
  - {x: 0.90172607, y: 0.43205398, z: -0.014817162, w: -1}
  - {x: 0.9709987, y: 0.22798398, z: 0.07200518, w: -1}
  - {x: 0.9878018, y: 0, z: 0.15571645, w: -1}
  - {x: 0.987802, y: 0, z: 0.15571511, w: -1}
  - {x: 0.987802, y: 0, z: 0.15571511, w: -1}
  - {x: 0.987802, y: 0, z: 0.15571511, w: -1}
  - {x: 0.987802, y: 0, z: 0.1557151, w: -1}
  - {x: 0.98758054, y: 0, z: -0.15711336, w: -1}
  - {x: 0.98758054, y: 0, z: -0.15711328, w: -1}
  - {x: 0.98758054, y: 0, z: -0.15711322, w: -1}
  - {x: 0.98758054, y: 0, z: -0.15711328, w: -1}
  - {x: 0.97145164, y: -0.22545147, z: -0.073846586, w: -1}
  - {x: 0.90402746, y: -0.4272904, z: 0.012540815, w: -1}
  - {x: 0.97145164, y: -0.22545147, z: -0.073846586, w: -1}
  - {x: 0.98758024, y: 0, z: -0.15711534, w: -1}
  - {x: 0.98758054, y: 0, z: -0.1571134, w: -1}
  - {x: 0.98758054, y: 0, z: -0.15711327, w: -1}
  - {x: 0.98758066, y: 0, z: -0.15711315, w: -1}
  - {x: 0.98758054, y: 0, z: -0.15711327, w: -1}
  - {x: 0.9925793, y: 0, z: -0.12159929, w: -1}
  - {x: 0.9925793, y: 0, z: -0.121599376, w: -1}
  - {x: 0.9925793, y: 0, z: -0.12159929, w: -1}
  - {x: 0.9925793, y: 0, z: -0.12159922, w: -1}
  - {x: 0.9397455, y: -0.3372623, z: -0.05596793, w: -1}
  - {x: 0.77727747, y: -0.6288237, z: 0.020509837, w: -1}
  - {x: 0.9397455, y: -0.3372623, z: -0.05596793, w: -1}
  - {x: 0.9925793, y: 0, z: -0.12159952, w: -1}
  - {x: 0.9925793, y: 0, z: -0.12159924, w: -1}
  - {x: 0.9925793, y: 0, z: -0.12159926, w: -1}
  - {x: 0.9925793, y: 0, z: -0.12159927, w: -1}
  - {x: 0.9925793, y: 0, z: -0.12159926, w: -1}
  - {x: 0.9926657, y: 0, z: 0.12089184, w: -1}
  - {x: 0.99266565, y: 0, z: 0.120891854, w: -1}
  - {x: 0.9926657, y: 0, z: 0.12089184, w: -1}
  - {x: 0.9926657, y: 0, z: 0.1208918, w: -1}
  - {x: 0.93935025, y: -0.3385844, z: 0.054605525, w: -1}
  - {x: 0.7754501, y: -0.6310225, z: -0.022082804, w: -1}
  - {x: 0.93935025, y: -0.3385844, z: 0.054605525, w: -1}
  - {x: 0.99266577, y: 0, z: 0.12089145, w: -1}
  - {x: 0.9926657, y: 0, z: 0.120891616, w: -1}
  - {x: 0.9926657, y: 0, z: 0.12089171, w: -1}
  - {x: 0.9926657, y: 0, z: 0.1208918, w: -1}
  - {x: 0.9926657, y: 0, z: 0.12089171, w: -1}
  - {x: 0.98869044, y: 0, z: 0.14997064, w: -1}
  - {x: 0.98869044, y: 0, z: 0.14997067, w: -1}
  - {x: 0.98869044, y: 0, z: 0.14997064, w: -1}
  - {x: 0.98869044, y: 0, z: 0.1499706, w: -1}
  - {x: 0.98698074, y: -0.1482071, z: 0.06248081, w: -1}
  - {x: 0.9624219, y: -0.2708294, z: -0.019886836, w: -1}
  - {x: 0.98698074, y: -0.1482071, z: 0.06248081, w: -1}
  - {x: 0.98869044, y: 0, z: 0.14997108, w: -1}
  - {x: 0.98869044, y: 0, z: 0.14997101, w: -1}
  - {x: 0.98869044, y: 0, z: 0.14997065, w: -1}
  - {x: 0.98869056, y: 0, z: 0.1499703, w: -1}
  - {x: 0.98869044, y: 0, z: 0.14997065, w: -1}
  - {x: 0.98931223, y: 0, z: -0.14581288, w: -1}
  - {x: 0.98931223, y: 0, z: -0.14581306, w: -1}
  - {x: 0.98931223, y: 0, z: -0.14581288, w: -1}
  - {x: 0.98931223, y: 0, z: -0.14581268, w: -1}
  - {x: 0.987151, y: 0.14915761, z: -0.05731355, w: -1}
  - {x: 0.96188766, y: 0.2722289, z: 0.02576223, w: -1}
  - {x: 0.987151, y: 0.14915761, z: -0.05731355, w: -1}
  - {x: 0.9893121, y: 0, z: -0.1458136, w: -1}
  - {x: 0.98931223, y: 0, z: -0.14581285, w: -1}
  - {x: 0.98931223, y: 0, z: -0.14581282, w: -1}
  - {x: 0.98931223, y: 0, z: -0.1458128, w: -1}
  - {x: 0.98931223, y: 0, z: -0.14581282, w: -1}
  - {x: 0.99289674, y: 0, z: -0.11897965, w: -1}
  - {x: 0.99289674, y: 0, z: -0.11897957, w: -1}
  - {x: 0.99289674, y: 0, z: -0.11897965, w: -1}
  - {x: 0.99289674, y: 0, z: -0.11897972, w: -1}
  - {x: 0.93428206, y: 0.35344386, z: -0.04684502, w: -1}
  - {x: 0.7553452, y: 0.65439665, z: 0.034908816, w: -1}
  - {x: 0.93428206, y: 0.35344386, z: -0.04684502, w: -1}
  - {x: 0.9928966, y: 0, z: -0.11898011, w: -1}
  - {x: 0.99289674, y: 0, z: -0.11897967, w: -1}
  - {x: 0.99289674, y: 0, z: -0.118979685, w: -1}
  - {x: 0.99289674, y: 0, z: -0.1189797, w: -1}
  - {x: 0.99289674, y: 0, z: -0.118979685, w: -1}
  m_Colors:
  - {r: 1, g: 1, b: 1, a: 1}
  - {r: 1, g: 1, b: 1, a: 1}
  - {r: 1, g: 1, b: 1, a: 1}
  - {r: 1, g: 1, b: 1, a: 1}
  - {r: 1, g: 1, b: 1, a: 1}
  - {r: 1, g: 1, b: 1, a: 1}
  - {r: 1, g: 1, b: 1, a: 1}
  - {r: 1, g: 1, b: 1, a: 1}
  - {r: 1, g: 1, b: 1, a: 1}
  - {r: 1, g: 1, b: 1, a: 1}
  - {r: 1, g: 1, b: 1, a: 1}
  - {r: 1, g: 1, b: 1, a: 1}
  - {r: 1, g: 1, b: 1, a: 1}
  - {r: 1, g: 1, b: 1, a: 1}
  - {r: 1, g: 1, b: 1, a: 1}
  - {r: 1, g: 1, b: 1, a: 1}
  - {r: 1, g: 1, b: 1, a: 1}
  - {r: 1, g: 1, b: 1, a: 1}
  - {r: 1, g: 1, b: 1, a: 1}
  - {r: 1, g: 1, b: 1, a: 1}
  - {r: 1, g: 1, b: 1, a: 1}
  - {r: 1, g: 1, b: 1, a: 1}
  - {r: 1, g: 1, b: 1, a: 1}
  - {r: 1, g: 1, b: 1, a: 1}
  - {r: 1, g: 1, b: 1, a: 1}
  - {r: 1, g: 1, b: 1, a: 1}
  - {r: 1, g: 1, b: 1, a: 1}
  - {r: 1, g: 1, b: 1, a: 1}
  - {r: 1, g: 1, b: 1, a: 1}
  - {r: 1, g: 1, b: 1, a: 1}
  - {r: 1, g: 1, b: 1, a: 1}
  - {r: 1, g: 1, b: 1, a: 1}
  - {r: 1, g: 1, b: 1, a: 1}
  - {r: 1, g: 1, b: 1, a: 1}
  - {r: 1, g: 1, b: 1, a: 1}
  - {r: 1, g: 1, b: 1, a: 1}
  - {r: 1, g: 1, b: 1, a: 1}
  - {r: 1, g: 1, b: 1, a: 1}
  - {r: 1, g: 1, b: 1, a: 1}
  - {r: 1, g: 1, b: 1, a: 1}
  - {r: 1, g: 1, b: 1, a: 1}
  - {r: 1, g: 1, b: 1, a: 1}
  - {r: 1, g: 1, b: 1, a: 1}
  - {r: 1, g: 1, b: 1, a: 1}
  - {r: 1, g: 1, b: 1, a: 1}
  - {r: 1, g: 1, b: 1, a: 1}
  - {r: 1, g: 1, b: 1, a: 1}
  - {r: 1, g: 1, b: 1, a: 1}
  - {r: 1, g: 1, b: 1, a: 1}
  - {r: 1, g: 1, b: 1, a: 1}
  - {r: 1, g: 1, b: 1, a: 1}
  - {r: 1, g: 1, b: 1, a: 1}
  - {r: 1, g: 1, b: 1, a: 1}
  - {r: 1, g: 1, b: 1, a: 1}
  - {r: 1, g: 1, b: 1, a: 1}
  - {r: 1, g: 1, b: 1, a: 1}
  - {r: 1, g: 1, b: 1, a: 1}
  - {r: 1, g: 1, b: 1, a: 1}
  - {r: 1, g: 1, b: 1, a: 1}
  - {r: 1, g: 1, b: 1, a: 1}
  - {r: 1, g: 1, b: 1, a: 1}
  - {r: 1, g: 1, b: 1, a: 1}
  - {r: 1, g: 1, b: 1, a: 1}
  - {r: 1, g: 1, b: 1, a: 1}
  - {r: 1, g: 1, b: 1, a: 1}
  - {r: 1, g: 1, b: 1, a: 1}
  - {r: 1, g: 1, b: 1, a: 1}
  - {r: 1, g: 1, b: 1, a: 1}
  - {r: 1, g: 1, b: 1, a: 1}
  - {r: 1, g: 1, b: 1, a: 1}
  - {r: 1, g: 1, b: 1, a: 1}
  - {r: 1, g: 1, b: 1, a: 1}
  - {r: 1, g: 1, b: 1, a: 1}
  - {r: 1, g: 1, b: 1, a: 1}
  - {r: 1, g: 1, b: 1, a: 1}
  - {r: 1, g: 1, b: 1, a: 1}
  - {r: 1, g: 1, b: 1, a: 1}
  - {r: 1, g: 1, b: 1, a: 1}
  - {r: 1, g: 1, b: 1, a: 1}
  - {r: 1, g: 1, b: 1, a: 1}
  - {r: 1, g: 1, b: 1, a: 1}
  - {r: 1, g: 1, b: 1, a: 1}
  - {r: 1, g: 1, b: 1, a: 1}
  - {r: 1, g: 1, b: 1, a: 1}
  - {r: 1, g: 1, b: 1, a: 1}
  - {r: 1, g: 1, b: 1, a: 1}
  - {r: 1, g: 1, b: 1, a: 1}
  - {r: 1, g: 1, b: 1, a: 1}
  - {r: 1, g: 1, b: 1, a: 1}
  - {r: 1, g: 1, b: 1, a: 1}
  - {r: 1, g: 1, b: 1, a: 1}
  - {r: 1, g: 1, b: 1, a: 1}
  - {r: 1, g: 1, b: 1, a: 1}
  - {r: 1, g: 1, b: 1, a: 1}
  - {r: 1, g: 1, b: 1, a: 1}
  - {r: 1, g: 1, b: 1, a: 1}
  - {r: 1, g: 1, b: 1, a: 1}
  - {r: 1, g: 1, b: 1, a: 1}
  - {r: 1, g: 1, b: 1, a: 1}
  - {r: 1, g: 1, b: 1, a: 1}
  - {r: 1, g: 1, b: 1, a: 1}
  - {r: 1, g: 1, b: 1, a: 1}
  - {r: 1, g: 1, b: 1, a: 1}
  - {r: 1, g: 1, b: 1, a: 1}
  - {r: 1, g: 1, b: 1, a: 1}
  - {r: 1, g: 1, b: 1, a: 1}
  - {r: 1, g: 1, b: 1, a: 1}
  - {r: 1, g: 1, b: 1, a: 1}
  - {r: 1, g: 1, b: 1, a: 1}
  - {r: 1, g: 1, b: 1, a: 1}
  - {r: 1, g: 1, b: 1, a: 1}
  - {r: 1, g: 1, b: 1, a: 1}
  - {r: 1, g: 1, b: 1, a: 1}
  - {r: 1, g: 1, b: 1, a: 1}
  - {r: 1, g: 1, b: 1, a: 1}
  - {r: 1, g: 1, b: 1, a: 1}
  - {r: 1, g: 1, b: 1, a: 1}
  - {r: 1, g: 1, b: 1, a: 1}
  - {r: 1, g: 1, b: 1, a: 1}
  - {r: 1, g: 1, b: 1, a: 1}
  - {r: 1, g: 1, b: 1, a: 1}
  - {r: 1, g: 1, b: 1, a: 1}
  - {r: 1, g: 1, b: 1, a: 1}
  - {r: 1, g: 1, b: 1, a: 1}
  - {r: 1, g: 1, b: 1, a: 1}
  - {r: 1, g: 1, b: 1, a: 1}
  - {r: 1, g: 1, b: 1, a: 1}
  - {r: 1, g: 1, b: 1, a: 1}
  - {r: 1, g: 1, b: 1, a: 1}
  - {r: 1, g: 1, b: 1, a: 1}
  - {r: 1, g: 1, b: 1, a: 1}
  - {r: 1, g: 1, b: 1, a: 1}
  - {r: 1, g: 1, b: 1, a: 1}
  - {r: 1, g: 1, b: 1, a: 1}
  - {r: 1, g: 1, b: 1, a: 1}
  - {r: 1, g: 1, b: 1, a: 1}
  - {r: 1, g: 1, b: 1, a: 1}
  - {r: 1, g: 1, b: 1, a: 1}
  - {r: 1, g: 1, b: 1, a: 1}
  - {r: 1, g: 1, b: 1, a: 1}
  - {r: 1, g: 1, b: 1, a: 1}
  - {r: 1, g: 1, b: 1, a: 1}
  - {r: 1, g: 1, b: 1, a: 1}
  - {r: 1, g: 1, b: 1, a: 1}
  - {r: 1, g: 1, b: 1, a: 1}
  - {r: 1, g: 1, b: 1, a: 1}
  - {r: 1, g: 1, b: 1, a: 1}
  - {r: 1, g: 1, b: 1, a: 1}
  - {r: 1, g: 1, b: 1, a: 1}
  - {r: 1, g: 1, b: 1, a: 1}
  - {r: 1, g: 1, b: 1, a: 1}
  - {r: 1, g: 1, b: 1, a: 1}
  - {r: 1, g: 1, b: 1, a: 1}
  - {r: 1, g: 1, b: 1, a: 1}
  - {r: 1, g: 1, b: 1, a: 1}
  - {r: 1, g: 1, b: 1, a: 1}
  - {r: 1, g: 1, b: 1, a: 1}
  - {r: 1, g: 1, b: 1, a: 1}
  - {r: 1, g: 1, b: 1, a: 1}
  - {r: 1, g: 1, b: 1, a: 1}
  - {r: 1, g: 1, b: 1, a: 1}
  - {r: 1, g: 1, b: 1, a: 1}
  - {r: 1, g: 1, b: 1, a: 1}
  - {r: 1, g: 1, b: 1, a: 1}
  - {r: 1, g: 1, b: 1, a: 1}
  - {r: 1, g: 1, b: 1, a: 1}
  - {r: 1, g: 1, b: 1, a: 1}
  - {r: 1, g: 1, b: 1, a: 1}
  - {r: 1, g: 1, b: 1, a: 1}
  - {r: 1, g: 1, b: 1, a: 1}
  - {r: 1, g: 1, b: 1, a: 1}
  - {r: 1, g: 1, b: 1, a: 1}
  - {r: 1, g: 1, b: 1, a: 1}
  - {r: 1, g: 1, b: 1, a: 1}
  - {r: 1, g: 1, b: 1, a: 1}
  - {r: 1, g: 1, b: 1, a: 1}
  - {r: 1, g: 1, b: 1, a: 1}
  - {r: 1, g: 1, b: 1, a: 1}
  - {r: 1, g: 1, b: 1, a: 1}
  - {r: 1, g: 1, b: 1, a: 1}
  - {r: 1, g: 1, b: 1, a: 1}
  - {r: 1, g: 1, b: 1, a: 1}
  - {r: 1, g: 1, b: 1, a: 1}
  - {r: 1, g: 1, b: 1, a: 1}
  - {r: 1, g: 1, b: 1, a: 1}
  - {r: 1, g: 1, b: 1, a: 1}
  - {r: 1, g: 1, b: 1, a: 1}
  - {r: 1, g: 1, b: 1, a: 1}
  - {r: 1, g: 1, b: 1, a: 1}
  - {r: 1, g: 1, b: 1, a: 1}
  - {r: 1, g: 1, b: 1, a: 1}
  - {r: 1, g: 1, b: 1, a: 1}
  - {r: 1, g: 1, b: 1, a: 1}
  - {r: 1, g: 1, b: 1, a: 1}
  - {r: 1, g: 1, b: 1, a: 1}
  - {r: 1, g: 1, b: 1, a: 1}
  - {r: 1, g: 1, b: 1, a: 1}
  - {r: 1, g: 1, b: 1, a: 1}
  - {r: 1, g: 1, b: 1, a: 1}
  - {r: 1, g: 1, b: 1, a: 1}
  - {r: 1, g: 1, b: 1, a: 1}
  - {r: 1, g: 1, b: 1, a: 1}
  - {r: 1, g: 1, b: 1, a: 1}
  - {r: 1, g: 1, b: 1, a: 1}
  - {r: 1, g: 1, b: 1, a: 1}
  - {r: 1, g: 1, b: 1, a: 1}
  - {r: 1, g: 1, b: 1, a: 1}
  - {r: 1, g: 1, b: 1, a: 1}
  - {r: 1, g: 1, b: 1, a: 1}
  - {r: 1, g: 1, b: 1, a: 1}
  - {r: 1, g: 1, b: 1, a: 1}
  - {r: 1, g: 1, b: 1, a: 1}
  - {r: 1, g: 1, b: 1, a: 1}
  - {r: 1, g: 1, b: 1, a: 1}
  - {r: 1, g: 1, b: 1, a: 1}
  - {r: 1, g: 1, b: 1, a: 1}
  - {r: 1, g: 1, b: 1, a: 1}
  - {r: 1, g: 1, b: 1, a: 1}
  - {r: 1, g: 1, b: 1, a: 1}
  - {r: 1, g: 1, b: 1, a: 1}
  - {r: 1, g: 1, b: 1, a: 1}
  - {r: 1, g: 1, b: 1, a: 1}
  - {r: 1, g: 1, b: 1, a: 1}
  - {r: 1, g: 1, b: 1, a: 1}
  - {r: 1, g: 1, b: 1, a: 1}
  - {r: 1, g: 1, b: 1, a: 1}
  - {r: 1, g: 1, b: 1, a: 1}
  - {r: 1, g: 1, b: 1, a: 1}
  - {r: 1, g: 1, b: 1, a: 1}
  - {r: 0.067, g: 0.067, b: 0.067, a: 1}
  - {r: 1, g: 1, b: 1, a: 1}
  - {r: 1, g: 1, b: 1, a: 1}
  - {r: 1, g: 1, b: 1, a: 1}
  - {r: 1, g: 1, b: 1, a: 1}
  - {r: 1, g: 1, b: 1, a: 1}
  - {r: 1, g: 1, b: 1, a: 1}
  - {r: 1, g: 1, b: 1, a: 1}
  - {r: 1, g: 1, b: 1, a: 1}
  - {r: 1, g: 1, b: 1, a: 1}
  - {r: 1, g: 1, b: 1, a: 1}
  - {r: 1, g: 1, b: 1, a: 1}
  - {r: 0.067, g: 0.067, b: 0.067, a: 1}
  - {r: 1, g: 1, b: 1, a: 1}
  - {r: 1, g: 1, b: 1, a: 1}
  - {r: 1, g: 1, b: 1, a: 1}
  - {r: 1, g: 1, b: 1, a: 1}
  - {r: 1, g: 1, b: 1, a: 1}
  - {r: 1, g: 1, b: 1, a: 1}
  - {r: 1, g: 1, b: 1, a: 1}
  - {r: 1, g: 1, b: 1, a: 1}
  - {r: 1, g: 1, b: 1, a: 1}
  - {r: 1, g: 1, b: 1, a: 1}
  - {r: 1, g: 1, b: 1, a: 1}
  - {r: 0.067, g: 0.067, b: 0.067, a: 1}
  - {r: 1, g: 1, b: 1, a: 1}
  - {r: 1, g: 1, b: 1, a: 1}
  - {r: 1, g: 1, b: 1, a: 1}
  - {r: 1, g: 1, b: 1, a: 1}
  - {r: 1, g: 1, b: 1, a: 1}
  - {r: 1, g: 1, b: 1, a: 1}
  - {r: 1, g: 1, b: 1, a: 1}
  - {r: 1, g: 1, b: 1, a: 1}
  - {r: 1, g: 1, b: 1, a: 1}
  - {r: 1, g: 1, b: 1, a: 1}
  - {r: 1, g: 1, b: 1, a: 1}
  - {r: 0.067, g: 0.067, b: 0.067, a: 1}
  - {r: 1, g: 1, b: 1, a: 1}
  - {r: 1, g: 1, b: 1, a: 1}
  - {r: 1, g: 1, b: 1, a: 1}
  - {r: 1, g: 1, b: 1, a: 1}
  - {r: 1, g: 1, b: 1, a: 1}
  - {r: 1, g: 1, b: 1, a: 1}
  - {r: 1, g: 1, b: 1, a: 1}
  - {r: 1, g: 1, b: 1, a: 1}
  - {r: 1, g: 1, b: 1, a: 1}
  - {r: 1, g: 1, b: 1, a: 1}
  - {r: 1, g: 1, b: 1, a: 1}
  - {r: 0.067, g: 0.067, b: 0.067, a: 1}
  - {r: 1, g: 1, b: 1, a: 1}
  - {r: 1, g: 1, b: 1, a: 1}
  - {r: 1, g: 1, b: 1, a: 1}
  - {r: 1, g: 1, b: 1, a: 1}
  - {r: 1, g: 1, b: 1, a: 1}
  - {r: 1, g: 1, b: 1, a: 1}
  - {r: 1, g: 1, b: 1, a: 1}
  - {r: 1, g: 1, b: 1, a: 1}
  - {r: 1, g: 1, b: 1, a: 1}
  - {r: 1, g: 1, b: 1, a: 1}
  - {r: 1, g: 1, b: 1, a: 1}
  - {r: 0.067, g: 0.067, b: 0.067, a: 1}
  - {r: 1, g: 1, b: 1, a: 1}
  - {r: 1, g: 1, b: 1, a: 1}
  - {r: 1, g: 1, b: 1, a: 1}
  - {r: 1, g: 1, b: 1, a: 1}
  - {r: 1, g: 1, b: 1, a: 1}
  - {r: 1, g: 1, b: 1, a: 1}
  - {r: 1, g: 1, b: 1, a: 1}
  - {r: 1, g: 1, b: 1, a: 1}
  - {r: 1, g: 1, b: 1, a: 1}
  - {r: 1, g: 1, b: 1, a: 1}
  - {r: 1, g: 1, b: 1, a: 1}
  - {r: 0.067, g: 0.067, b: 0.067, a: 1}
  - {r: 1, g: 1, b: 1, a: 1}
  - {r: 1, g: 1, b: 1, a: 1}
  - {r: 1, g: 1, b: 1, a: 1}
  - {r: 1, g: 1, b: 1, a: 1}
  - {r: 1, g: 1, b: 1, a: 1}
  - {r: 1, g: 1, b: 1, a: 1}
  - {r: 1, g: 1, b: 1, a: 1}
  - {r: 1, g: 1, b: 1, a: 1}
  - {r: 1, g: 1, b: 1, a: 1}
  - {r: 1, g: 1, b: 1, a: 1}
  - {r: 1, g: 1, b: 1, a: 1}
  - {r: 0.067, g: 0.067, b: 0.067, a: 1}
  - {r: 1, g: 1, b: 1, a: 1}
  - {r: 1, g: 1, b: 1, a: 1}
  - {r: 1, g: 1, b: 1, a: 1}
  - {r: 1, g: 1, b: 1, a: 1}
  - {r: 1, g: 1, b: 1, a: 1}
  - {r: 1, g: 1, b: 1, a: 1}
  m_UnwrapParameters:
    m_HardAngle: 88
    m_PackMargin: 20
    m_AngleError: 8
    m_AreaError: 15
  m_PreserveMeshAssetOnDestroy: 0
  assetGuid: 
  m_IsSelectable: 1
  m_SelectedFaces: 
  m_SelectedEdges: []
  m_SelectedVertices: 
--- !u!1 &2884542852628300283
GameObject:
  m_ObjectHideFlags: 0
  m_CorrespondingSourceObject: {fileID: 712538712138115400, guid: bbeede40c8d466ac7a15573cf56058e0,
    type: 3}
  m_PrefabInstance: {fileID: 0}
  m_PrefabAsset: {fileID: 0}
  serializedVersion: 6
  m_Component:
  - component: {fileID: 5699237344689673069}
  - component: {fileID: 45910971308209900}
  - component: {fileID: 3037523383396838957}
  m_Layer: 5
  m_Name: Text
  m_TagString: Untagged
  m_Icon: {fileID: 0}
  m_NavMeshLayer: 0
  m_StaticEditorFlags: 0
  m_IsActive: 1
--- !u!224 &5699237344689673069
RectTransform:
  m_ObjectHideFlags: 0
  m_CorrespondingSourceObject: {fileID: 7994809031525399518, guid: bbeede40c8d466ac7a15573cf56058e0,
    type: 3}
  m_PrefabInstance: {fileID: 0}
  m_PrefabAsset: {fileID: 0}
  m_GameObject: {fileID: 2884542852628300283}
  m_LocalRotation: {x: 0, y: 0, z: 0, w: 1}
  m_LocalPosition: {x: 0, y: 0, z: -0}
  m_LocalScale: {x: 1, y: 1, z: 1}
  m_Children: []
  m_Father: {fileID: 3032666536546259205}
  m_RootOrder: 0
  m_LocalEulerAnglesHint: {x: 0, y: 0, z: 0}
  m_AnchorMin: {x: 0.5, y: 0.5}
  m_AnchorMax: {x: 0.5, y: 0.5}
  m_AnchoredPosition: {x: 0, y: 0}
  m_SizeDelta: {x: 100, y: 70}
  m_Pivot: {x: 0.5, y: 0.5}
--- !u!222 &45910971308209900
CanvasRenderer:
  m_ObjectHideFlags: 0
  m_CorrespondingSourceObject: {fileID: 2398058598462119519, guid: bbeede40c8d466ac7a15573cf56058e0,
    type: 3}
  m_PrefabInstance: {fileID: 0}
  m_PrefabAsset: {fileID: 0}
  m_GameObject: {fileID: 2884542852628300283}
  m_CullTransparentMesh: 0
--- !u!114 &3037523383396838957
MonoBehaviour:
  m_ObjectHideFlags: 0
  m_CorrespondingSourceObject: {fileID: 847790756544775838, guid: bbeede40c8d466ac7a15573cf56058e0,
    type: 3}
  m_PrefabInstance: {fileID: 0}
  m_PrefabAsset: {fileID: 0}
  m_GameObject: {fileID: 2884542852628300283}
  m_Enabled: 1
  m_EditorHideFlags: 0
  m_Script: {fileID: 708705254, guid: f70555f144d8491a825f0804e09c671c, type: 3}
  m_Name: 
  m_EditorClassIdentifier: 
  m_Material: {fileID: 0}
  m_Color: {r: 1, g: 1, b: 1, a: 1}
  m_RaycastTarget: 1
  m_OnCullStateChanged:
    m_PersistentCalls:
      m_Calls: []
    m_TypeName: UnityEngine.UI.MaskableGraphic+CullStateChangedEvent, UnityEngine.UI,
      Version=1.0.0.0, Culture=neutral, PublicKeyToken=null
  m_FontData:
    m_Font: {fileID: 10102, guid: 0000000000000000e000000000000000, type: 0}
    m_FontSize: 50
    m_FontStyle: 0
    m_BestFit: 0
    m_MinSize: 0
    m_MaxSize: 50
    m_Alignment: 4
    m_AlignByGeometry: 0
    m_RichText: 1
    m_HorizontalOverflow: 0
    m_VerticalOverflow: 0
    m_LineSpacing: 1
  m_Text: 15
--- !u!1 &4044258365758960832
GameObject:
  m_ObjectHideFlags: 0
  m_CorrespondingSourceObject: {fileID: 1856769275785600115, guid: bbeede40c8d466ac7a15573cf56058e0,
    type: 3}
  m_PrefabInstance: {fileID: 0}
  m_PrefabAsset: {fileID: 0}
  serializedVersion: 6
  m_Component:
  - component: {fileID: 3032666536546259205}
  - component: {fileID: 5937897150216515028}
  - component: {fileID: 3397865002637355900}
  m_Layer: 5
  m_Name: Canvas
  m_TagString: Untagged
  m_Icon: {fileID: 0}
  m_NavMeshLayer: 0
  m_StaticEditorFlags: 0
  m_IsActive: 1
--- !u!224 &3032666536546259205
RectTransform:
  m_ObjectHideFlags: 0
  m_CorrespondingSourceObject: {fileID: 860948916184840630, guid: bbeede40c8d466ac7a15573cf56058e0,
    type: 3}
  m_PrefabInstance: {fileID: 0}
  m_PrefabAsset: {fileID: 0}
  m_GameObject: {fileID: 4044258365758960832}
  m_LocalRotation: {x: -0, y: -0, z: -0, w: 1}
  m_LocalPosition: {x: 0, y: 0, z: 0.06100008}
  m_LocalScale: {x: -0.01, y: 0.010000002, z: 0.9900008}
  m_Children:
  - {fileID: 5699237344689673069}
  m_Father: {fileID: 7112200168563246126}
  m_RootOrder: 0
  m_LocalEulerAnglesHint: {x: -90, y: 0, z: 0}
  m_AnchorMin: {x: 0, y: 0}
  m_AnchorMax: {x: 0, y: 0}
  m_AnchoredPosition: {x: -0.004999995, y: -0.0000000027939677}
  m_SizeDelta: {x: 715, y: 402}
  m_Pivot: {x: 0.5, y: 0.5}
--- !u!223 &5937897150216515028
Canvas:
  m_ObjectHideFlags: 0
  m_CorrespondingSourceObject: {fileID: 8323535708837643623, guid: bbeede40c8d466ac7a15573cf56058e0,
    type: 3}
  m_PrefabInstance: {fileID: 0}
  m_PrefabAsset: {fileID: 0}
  m_GameObject: {fileID: 4044258365758960832}
  m_Enabled: 1
  serializedVersion: 3
  m_RenderMode: 2
  m_Camera: {fileID: 0}
  m_PlaneDistance: 100
  m_PixelPerfect: 0
  m_ReceivesEvents: 1
  m_OverrideSorting: 0
  m_OverridePixelPerfect: 0
  m_SortingBucketNormalizedSize: 0
  m_AdditionalShaderChannelsFlag: 0
  m_SortingLayerID: 0
  m_SortingOrder: 0
  m_TargetDisplay: 0
--- !u!114 &3397865002637355900
MonoBehaviour:
  m_ObjectHideFlags: 0
  m_CorrespondingSourceObject: {fileID: 1063731768724014031, guid: bbeede40c8d466ac7a15573cf56058e0,
    type: 3}
  m_PrefabInstance: {fileID: 0}
  m_PrefabAsset: {fileID: 0}
  m_GameObject: {fileID: 4044258365758960832}
  m_Enabled: 1
  m_EditorHideFlags: 0
  m_Script: {fileID: 1980459831, guid: f70555f144d8491a825f0804e09c671c, type: 3}
  m_Name: 
  m_EditorClassIdentifier: 
  m_UiScaleMode: 0
  m_ReferencePixelsPerUnit: 100
  m_ScaleFactor: 1
  m_ReferenceResolution: {x: 800, y: 600}
  m_ScreenMatchMode: 0
  m_MatchWidthOrHeight: 0
  m_PhysicalUnit: 3
  m_FallbackScreenDPI: 96
  m_DefaultSpriteDPI: 96
  m_DynamicPixelsPerUnit: 1
--- !u!1 &4699187624598882384
GameObject:
  m_ObjectHideFlags: 0
  m_CorrespondingSourceObject: {fileID: 0}
  m_PrefabInstance: {fileID: 0}
  m_PrefabAsset: {fileID: 0}
  serializedVersion: 6
  m_Component:
  - component: {fileID: 7112200168563246126}
  m_Layer: 0
  m_Name: CollectionPointIcon
  m_TagString: Untagged
  m_Icon: {fileID: 0}
  m_NavMeshLayer: 0
  m_StaticEditorFlags: 0
  m_IsActive: 1
--- !u!4 &7112200168563246126
Transform:
  m_ObjectHideFlags: 0
  m_CorrespondingSourceObject: {fileID: 0}
  m_PrefabInstance: {fileID: 0}
  m_PrefabAsset: {fileID: 0}
  m_GameObject: {fileID: 4699187624598882384}
  m_LocalRotation: {x: 0, y: 0, z: 0, w: 1}
  m_LocalPosition: {x: 0, y: 0, z: 0}
  m_LocalScale: {x: 1, y: 1, z: 1}
  m_Children:
  - {fileID: 3032666536546259205}
  - {fileID: 2442224642714370054}
  m_Father: {fileID: 0}
  m_RootOrder: 0
  m_LocalEulerAnglesHint: {x: 0, y: 0, z: 0}
