%YAML 1.1
%TAG !u! tag:unity3d.com,2011:
--- !u!1 &7627233666312489990
GameObject:
  m_ObjectHideFlags: 0
  m_CorrespondingSourceObject: {fileID: 0}
  m_PrefabInstance: {fileID: 0}
  m_PrefabAsset: {fileID: 0}
  serializedVersion: 6
  m_Component:
  - component: {fileID: 7627233666312489987}
  - component: {fileID: 7627233666312489984}
  - component: {fileID: 7627233666312489985}
  - component: {fileID: 7627233666312489986}
  m_Layer: 0
  m_Name: Main Camera
  m_TagString: MainCamera
  m_Icon: {fileID: 0}
  m_NavMeshLayer: 0
  m_StaticEditorFlags: 8
  m_IsActive: 1
--- !u!4 &7627233666312489987
Transform:
  m_ObjectHideFlags: 0
  m_CorrespondingSourceObject: {fileID: 0}
  m_PrefabInstance: {fileID: 0}
  m_PrefabAsset: {fileID: 0}
  m_GameObject: {fileID: 7627233666312489990}
  m_LocalRotation: {x: 0.35355338, y: 0.35355338, z: -0.1464466, w: 0.8535535}
  m_LocalPosition: {x: -37.26, y: 53.5, z: -37.26}
  m_LocalScale: {x: 1, y: 1, z: 1}
  m_Children: []
  m_Father: {fileID: 0}
  m_RootOrder: 0
  m_LocalEulerAnglesHint: {x: 45, y: 45, z: 0}
--- !u!20 &7627233666312489984
Camera:
  m_ObjectHideFlags: 0
  m_CorrespondingSourceObject: {fileID: 0}
  m_PrefabInstance: {fileID: 0}
  m_PrefabAsset: {fileID: 0}
  m_GameObject: {fileID: 7627233666312489990}
  m_Enabled: 1
  serializedVersion: 2
  m_ClearFlags: 1
  m_BackGroundColor: {r: 0.19215687, g: 0.3019608, b: 0.4745098, a: 0}
  m_projectionMatrixMode: 1
  m_SensorSize: {x: 36, y: 24}
  m_LensShift: {x: 0, y: 0}
  m_GateFitMode: 2
  m_FocalLength: 50
  m_NormalizedViewPortRect:
    serializedVersion: 2
    x: 0
    y: 0
    width: 1
    height: 1
  near clip plane: 0.3
  far clip plane: 1000
  field of view: 60
  orthographic: 1
  orthographic size: 50
  m_Depth: -1
  m_CullingMask:
    serializedVersion: 2
    m_Bits: 4294967295
  m_RenderingPath: -1
  m_TargetTexture: {fileID: 0}
  m_TargetDisplay: 0
  m_TargetEye: 3
  m_HDR: 1
  m_AllowMSAA: 1
  m_AllowDynamicResolution: 0
  m_ForceIntoRT: 0
  m_OcclusionCulling: 1
  m_StereoConvergence: 10
  m_StereoSeparation: 0.022
--- !u!81 &7627233666312489985
AudioListener:
  m_ObjectHideFlags: 0
  m_CorrespondingSourceObject: {fileID: 0}
  m_PrefabInstance: {fileID: 0}
  m_PrefabAsset: {fileID: 0}
  m_GameObject: {fileID: 7627233666312489990}
  m_Enabled: 1
--- !u!114 &7627233666312489986
MonoBehaviour:
  m_ObjectHideFlags: 0
  m_CorrespondingSourceObject: {fileID: 0}
  m_PrefabInstance: {fileID: 0}
  m_PrefabAsset: {fileID: 0}
  m_GameObject: {fileID: 7627233666312489990}
  m_Enabled: 1
  m_EditorHideFlags: 0
  m_Script: {fileID: 11500000, guid: a918768756f134845812b0723bd624d6, type: 3}
  m_Name: 
  m_EditorClassIdentifier: 
  audioprefab: {fileID: 6506212194617639191, guid: e6cd2d0454fc3e54a8d931361fded5da,
    type: 3}
  upgrades:
  - {fileID: 8300000, guid: 1f0a379a9ca92904c9f14d4cce1ade3b, type: 3}
  - {fileID: 8300000, guid: bf6fd2bf75d57614cbfc37ab19080bb0, type: 3}
  - {fileID: 8300000, guid: b0cd99b0f9558f54d8675c6b07b4a2fd, type: 3}
  - {fileID: 8300000, guid: 63853e8fd9480a7458b7c4cfde3cf2f7, type: 3}
  - {fileID: 8300000, guid: c38ef3da0d6bea24d91f3d625faf7bc1, type: 3}
  - {fileID: 8300000, guid: 5eff9b2c8e45a14478f44aa35c40a18c, type: 3}
  cars:
  - {fileID: 8300000, guid: ed3eabb30cabefc469c67e141893e7eb, type: 3}
  - {fileID: 8300000, guid: 50625056c6319b34faf1b5a321bea4f9, type: 3}
  - {fileID: 8300000, guid: 3804bf6a68bf5ff43bf50a9a9c29103f, type: 3}
  - {fileID: 8300000, guid: e6a9ed20914202543adca30c7dd3c78e, type: 3}
  - {fileID: 8300000, guid: f7a3ae863d9235444952a6a64d26d562, type: 3}
  - {fileID: 8300000, guid: 3466d869967a67d4a8b022b1d6ffa921, type: 3}
  - {fileID: 8300000, guid: 1c29c396af9bdfc4c987ae28c2cc258a, type: 3}
  - {fileID: 8300000, guid: dba11bc014fb82747ba1bce275a13797, type: 3}
  boxloading:
  - {fileID: 8300000, guid: 4bb3e5aa81484fb458e4bba2c5a8719c, type: 3}
  - {fileID: 8300000, guid: 27856dec007b41148b42d1a8a1d711c5, type: 3}
  - {fileID: 8300000, guid: f1a025bb2ee62234489c9ea793ecfc16, type: 3}
  - {fileID: 8300000, guid: a02f8b79b93bcb948a9a53fa183b1ad9, type: 3}
  - {fileID: 8300000, guid: 17a8c3368bd7c244a945012368e1732c, type: 3}
  - {fileID: 8300000, guid: d0652c96fa8251642a44d408927c3338, type: 3}
  - {fileID: 8300000, guid: 21408960b42514540a73adeff3032f58, type: 3}
  - {fileID: 8300000, guid: a693f5ff0eff8684cadefade697e4e69, type: 3}
  - {fileID: 8300000, guid: 88c3d611f7d6bb44fae6f3144efdea23, type: 3}
  - {fileID: 8300000, guid: b90163ad19ca7f3439915aa5f244ffc7, type: 3}
  - {fileID: 8300000, guid: 8f09b76484bee0a4abbc743a3b9576dd, type: 3}
  - {fileID: 8300000, guid: a2ebb64678209cb42b0169fc8722825d, type: 3}
  - {fileID: 8300000, guid: a29116dec2dd0dd4eb7573434d5bf6cb, type: 3}
  - {fileID: 8300000, guid: a6860eb9cd0b37046bd5044a8eb012a5, type: 3}
  - {fileID: 8300000, guid: b9d26117c6573fa40b07bb836f4586ad, type: 3}
  - {fileID: 8300000, guid: c7bef1198ae8c694aa6ccf63987ee6af, type: 3}
  - {fileID: 8300000, guid: f95722192f250d94e832894c5f1b556a, type: 3}
  boxunloading:
  - {fileID: 8300000, guid: 9bb146cb62ab7eb4d9cb4d042d992970, type: 3}
  - {fileID: 8300000, guid: 9ae5c61f8737be34596341afd5570bfd, type: 3}
  - {fileID: 8300000, guid: 5f853c1a2a75a66489cdc56a4f51bb39, type: 3}
  - {fileID: 8300000, guid: 035447bbc2826334bb0db1671445d87a, type: 3}
  - {fileID: 8300000, guid: 381a0b39ae1dd0a4c80cdb043c960f0c, type: 3}
  - {fileID: 8300000, guid: 07ff0ea2daebbdb4682d79ab364052bc, type: 3}
  - {fileID: 8300000, guid: e8abd5675efaa8d4db78b7295b805188, type: 3}
  - {fileID: 8300000, guid: 7f55ae389ac8c3d499fd38008f7c9fb8, type: 3}
  - {fileID: 8300000, guid: 88f000355fb048449b859f2846cfd49e, type: 3}
  - {fileID: 8300000, guid: 367ffd6d3899af441961d5935890ccd5, type: 3}
  - {fileID: 8300000, guid: e50a8917c6ed8fe4d88e862b977a7f8b, type: 3}
  birds:
  - {fileID: 8300000, guid: 59a8e6acc2ceb914ea96243721e7c8a2, type: 3}
  - {fileID: 8300000, guid: b3d8227a42ccd404a921aef1331511a8, type: 3}
  - {fileID: 8300000, guid: 8882cc867fc29ae488459f8eacb57274, type: 3}
  - {fileID: 8300000, guid: b5de18ab5efc8ca4a9a403ecf6329b25, type: 3}
  - {fileID: 8300000, guid: 8514a4f05214a8c4cbea92caff9b4284, type: 3}
  - {fileID: 8300000, guid: 3f72cb51b84a9364c8dda4c3019a22d3, type: 3}
  - {fileID: 8300000, guid: 12df3436f33b233439e4e8a717ef5aec, type: 3}
  - {fileID: 8300000, guid: b3fd1eb52e83ce445b9545b4e50dde60, type: 3}
  - {fileID: 8300000, guid: 639aa91aca8c3c045b32bafaa76775c3, type: 3}
  - {fileID: 8300000, guid: a9432bdb2c6ecde4bbba89551ebd805c, type: 3}
  - {fileID: 8300000, guid: 37c362b3b0385584b98773802ef2ccbe, type: 3}
  - {fileID: 8300000, guid: 869528d1a6ecaf24d9594fcdf3dd5288, type: 3}
  selecting:
  - {fileID: 8300000, guid: 0d3ef3ac061df7947aa55426dfc9301e, type: 3}
  - {fileID: 8300000, guid: 1adb42da4e8ba004da4fdf6f6ad0bf38, type: 3}
  - {fileID: 8300000, guid: cb77e769243b1b64681cc8eb5b1da180, type: 3}
  - {fileID: 8300000, guid: 41d45be8fb71bd2439bc2aed320f148e, type: 3}
  - {fileID: 8300000, guid: f3e1d8a33358f164a925da05fd346de2, type: 3}
  - {fileID: 8300000, guid: 5765e7bc5b570614993930c3852d689c, type: 3}
  - {fileID: 8300000, guid: 981738f74b9d9474ab4cbe41fd1d98fc, type: 3}
  - {fileID: 8300000, guid: 5ba693d12fb645e488a091a92f199c8a, type: 3}
  - {fileID: 8300000, guid: 90977c1e2e8563f4ba8d013bb0106379, type: 3}
  confirmlocation:
  - {fileID: 8300000, guid: ba1679a1b3e3b7c469dbd0d86e48b8d0, type: 3}
  - {fileID: 8300000, guid: 1ba658f33ca4ef64ea6f25bef6e37b70, type: 3}
  - {fileID: 8300000, guid: 0365e6246a4f88d47803ee75f5e461a6, type: 3}
  - {fileID: 8300000, guid: c42bef5eeb9d68643959ccd8980e18d0, type: 3}
  - {fileID: 8300000, guid: ca9367535ad0d79489a5706f7f9e4b92, type: 3}
  - {fileID: 8300000, guid: 027d75b1756a32a49a0b2ba5280dd550, type: 3}
  drawing:
  - {fileID: 8300000, guid: e9ed9e1558414754686ddc2aa5e1b533, type: 3}
  - {fileID: 8300000, guid: 330eb6c8d6857514aa7975194734ebc6, type: 3}
